m_conId,m_currency,m_exchange,m_expiry,m_includeExpired,m_localSymbol,m_multiplier,m_primaryExch,m_right,m_secType,m_strike,m_symbol,m_tradingClass
132757500,USD,GLOBEX,20161219.0,False,6AZ6,100000.0,,,FUT,0.0,AUD,6A
132757507,USD,GLOBEX,20170313.0,False,6AH7,100000.0,,,FUT,0.0,AUD,6A
132757510,USD,GLOBEX,20170619.0,False,6AM7,100000.0,,,FUT,0.0,AUD,6A
132757513,USD,GLOBEX,20170918.0,False,6AU7,100000.0,,,FUT,0.0,AUD,6A
132757516,USD,GLOBEX,20171218.0,False,6AZ7,100000.0,,,FUT,0.0,AUD,6A
132757522,USD,GLOBEX,20180319.0,False,6AH8,100000.0,,,FUT,0.0,AUD,6A
132757527,USD,GLOBEX,20180618.0,False,6AM8,100000.0,,,FUT,0.0,AUD,6A
134471785,USD,GLOBEX,20180917.0,False,6AU8,100000.0,,,FUT,0.0,AUD,6A
140081910,USD,GLOBEX,20181217.0,False,6AZ8,100000.0,,,FUT,0.0,AUD,6A
146293495,USD,GLOBEX,20190318.0,False,6AH9,100000.0,,,FUT,0.0,AUD,6A
156121113,USD,GLOBEX,20190617.0,False,6AM9,100000.0,,,FUT,0.0,AUD,6A
166727942,USD,GLOBEX,20190916.0,False,6AU9,100000.0,,,FUT,0.0,AUD,6A
176936570,USD,GLOBEX,20191216.0,False,6AZ9,100000.0,,,FUT,0.0,AUD,6A
187062382,USD,GLOBEX,20200316.0,False,6AH0,100000.0,,,FUT,0.0,AUD,6A
197010847,USD,GLOBEX,20200615.0,False,6AM0,100000.0,,,FUT,0.0,AUD,6A
206515762,USD,GLOBEX,20200914.0,False,6AU0,100000.0,,,FUT,0.0,AUD,6A
215229219,USD,GLOBEX,20201214.0,False,6AZ0,100000.0,,,FUT,0.0,AUD,6A
225389981,USD,GLOBEX,20210315.0,False,6AH1,100000.0,,,FUT,0.0,AUD,6A
236642118,USD,GLOBEX,20210614.0,False,6AM1,100000.0,,,FUT,0.0,AUD,6A
248025740,USD,GLOBEX,20210913.0,False,6AU1,100000.0,,,FUT,0.0,AUD,6A
132757364,USD,GLOBEX,20180320.0,False,6CH8,100000.0,,,FUT,0.0,CAD,6C
132757390,USD,GLOBEX,20161220.0,False,6CZ6,100000.0,,,FUT,0.0,CAD,6C
132757392,USD,GLOBEX,20170314.0,False,6CH7,100000.0,,,FUT,0.0,CAD,6C
132757397,USD,GLOBEX,20170620.0,False,6CM7,100000.0,,,FUT,0.0,CAD,6C
132757402,USD,GLOBEX,20170919.0,False,6CU7,100000.0,,,FUT,0.0,CAD,6C
132757407,USD,GLOBEX,20171219.0,False,6CZ7,100000.0,,,FUT,0.0,CAD,6C
132757411,USD,GLOBEX,20180619.0,False,6CM8,100000.0,,,FUT,0.0,CAD,6C
134471821,USD,GLOBEX,20180918.0,False,6CU8,100000.0,,,FUT,0.0,CAD,6C
140137011,USD,GLOBEX,20181218.0,False,6CZ8,100000.0,,,FUT,0.0,CAD,6C
146355034,USD,GLOBEX,20190319.0,False,6CH9,100000.0,,,FUT,0.0,CAD,6C
156367813,USD,GLOBEX,20190618.0,False,6CM9,100000.0,,,FUT,0.0,CAD,6C
166924100,USD,GLOBEX,20190917.0,False,6CU9,100000.0,,,FUT,0.0,CAD,6C
177068877,USD,GLOBEX,20191217.0,False,6CZ9,100000.0,,,FUT,0.0,CAD,6C
187215501,USD,GLOBEX,20200317.0,False,6CH0,100000.0,,,FUT,0.0,CAD,6C
197095620,USD,GLOBEX,20200616.0,False,6CM0,100000.0,,,FUT,0.0,CAD,6C
206616756,USD,GLOBEX,20200915.0,False,6CU0,100000.0,,,FUT,0.0,CAD,6C
215305151,USD,GLOBEX,20201215.0,False,6CZ0,100000.0,,,FUT,0.0,CAD,6C
225476804,USD,GLOBEX,20210316.0,False,6CH1,100000.0,,,FUT,0.0,CAD,6C
236748705,USD,GLOBEX,20210615.0,False,6CM1,100000.0,,,FUT,0.0,CAD,6C
248716017,USD,GLOBEX,20210914.0,False,6CU1,100000.0,,,FUT,0.0,CAD,6C
132757445,USD,GLOBEX,20161219.0,False,6SZ6,125000.0,,,FUT,0.0,CHF,6S
132757450,USD,GLOBEX,20170313.0,False,6SH7,125000.0,,,FUT,0.0,CHF,6S
132757455,USD,GLOBEX,20170619.0,False,6SM7,125000.0,,,FUT,0.0,CHF,6S
132757457,USD,GLOBEX,20170918.0,False,6SU7,125000.0,,,FUT,0.0,CHF,6S
132757460,USD,GLOBEX,20171218.0,False,6SZ7,125000.0,,,FUT,0.0,CHF,6S
132757467,USD,GLOBEX,20180319.0,False,6SH8,125000.0,,,FUT,0.0,CHF,6S
132757470,USD,GLOBEX,20180618.0,False,6SM8,125000.0,,,FUT,0.0,CHF,6S
134471901,USD,GLOBEX,20180917.0,False,6SU8,125000.0,,,FUT,0.0,CHF,6S
140081969,USD,GLOBEX,20181217.0,False,6SZ8,125000.0,,,FUT,0.0,CHF,6S
146293396,USD,GLOBEX,20190318.0,False,6SH9,125000.0,,,FUT,0.0,CHF,6S
156121170,USD,GLOBEX,20190617.0,False,6SM9,125000.0,,,FUT,0.0,CHF,6S
166728102,USD,GLOBEX,20190916.0,False,6SU9,125000.0,,,FUT,0.0,CHF,6S
176936707,USD,GLOBEX,20191216.0,False,6SZ9,125000.0,,,FUT,0.0,CHF,6S
187062348,USD,GLOBEX,20200316.0,False,6SH0,125000.0,,,FUT,0.0,CHF,6S
197010907,USD,GLOBEX,20200615.0,False,6SM0,125000.0,,,FUT,0.0,CHF,6S
206515781,USD,GLOBEX,20200914.0,False,6SU0,125000.0,,,FUT,0.0,CHF,6S
215229248,USD,GLOBEX,20201214.0,False,6SZ0,125000.0,,,FUT,0.0,CHF,6S
225389964,USD,GLOBEX,20210315.0,False,6SH1,125000.0,,,FUT,0.0,CHF,6S
236642175,USD,GLOBEX,20210614.0,False,6SM1,125000.0,,,FUT,0.0,CHF,6S
248025757,USD,GLOBEX,20210913.0,False,6SU1,125000.0,,,FUT,0.0,CHF,6S
141359004,USD,NYBOT,20161207.0,False,CTZ6,50000.0,,,FUT,0.0,CT,CT
147650132,USD,NYBOT,20170309.0,False,CTH7,50000.0,,,FUT,0.0,CT,CT
153481925,USD,NYBOT,20170508.0,False,CTK7,50000.0,,,FUT,0.0,CT,CT
162749915,USD,NYBOT,20170707.0,False,CTN7,50000.0,,,FUT,0.0,CT,CT
172683047,USD,NYBOT,20171009.0,False,CTV7,50000.0,,,FUT,0.0,CT,CT
179029811,USD,NYBOT,20171206.0,False,CTZ7,50000.0,,,FUT,0.0,CT,CT
189284065,USD,NYBOT,20180307.0,False,CTH8,50000.0,,,FUT,0.0,CT,CT
196110752,USD,NYBOT,20180508.0,False,CTK8,50000.0,,,FUT,0.0,CT,CT
202059695,USD,NYBOT,20180709.0,False,CTN8,50000.0,,,FUT,0.0,CT,CT
211582205,USD,NYBOT,20181009.0,False,CTV8,50000.0,,,FUT,0.0,CT,CT
217935099,USD,NYBOT,20181206.0,False,CTZ8,50000.0,,,FUT,0.0,CT,CT
228089646,USD,NYBOT,20190307.0,False,CTH9,50000.0,,,FUT,0.0,CT,CT
235596843,USD,NYBOT,20190508.0,False,CTK9,50000.0,,,FUT,0.0,CT,CT
242691572,USD,NYBOT,20190709.0,False,CTN9,50000.0,,,FUT,0.0,CT,CT
226578913,EUR,DTB,20161216.0,False,FDAX DEC 16,25.0,,,FUT,0.0,DAX,FDAX
226579076,EUR,DTB,20161216.0,False,FDXM DEC 16,5.0,,,FUT,0.0,DAX,FDXM
237123039,EUR,DTB,20170317.0,False,FDAX MAR 17,25.0,,,FUT,0.0,DAX,FDAX
237123146,EUR,DTB,20170317.0,False,FDXM MAR 17,5.0,,,FUT,0.0,DAX,FDXM
248032161,EUR,DTB,20170616.0,False,FDAX JUN 17,25.0,,,FUT,0.0,DAX,FDAX
248032234,EUR,DTB,20170616.0,False,FDXM JUN 17,5.0,,,FUT,0.0,DAX,FDXM
206848444,USD,GLOBEX,20161216.0,False,EMDZ6,100.0,,,FUT,0.0,EMD,EMD
215465505,USD,GLOBEX,20170317.0,False,EMDH7,100.0,,,FUT,0.0,EMD,EMD
225652175,USD,GLOBEX,20170616.0,False,EMDM7,100.0,,,FUT,0.0,EMD,EMD
236950037,USD,GLOBEX,20170915.0,False,EMDU7,100.0,,,FUT,0.0,EMD,EMD
247950537,USD,GLOBEX,20171215.0,False,EMDZ7,100.0,,,FUT,0.0,EMD,EMD
206848474,USD,GLOBEX,20161216.0,False,ESZ6,50.0,,,FUT,0.0,ES,ES
215465490,USD,GLOBEX,20170317.0,False,ESH7,50.0,,,FUT,0.0,ES,ES
225652200,USD,GLOBEX,20170616.0,False,ESM7,50.0,,,FUT,0.0,ES,ES
236950077,USD,GLOBEX,20170915.0,False,ESU7,50.0,,,FUT,0.0,ES,ES
247950613,USD,GLOBEX,20171215.0,False,ESZ7,50.0,,,FUT,0.0,ES,ES
47207310,USD,NYMEX,20161121.0,False,CLZ6,1000.0,,,FUT,0.0,CL,CL
55928744,USD,NYMEX,20171120.0,False,CLZ7,1000.0,,,FUT,0.0,CL,CL
55977404,USD,NYMEX,20170522.0,False,CLM7,1000.0,,,FUT,0.0,CL,CL
70342780,USD,NYMEX,20180522.0,False,CLM8,1000.0,,,FUT,0.0,CL,CL
70407716,USD,NYMEX,20181119.0,False,CLZ8,1000.0,,,FUT,0.0,CL,CL
81037201,USD,NYMEX,20161020.0,False,CLX6,1000.0,,,FUT,0.0,CL,CL
81037223,USD,NYMEX,20190521.0,False,CLM9,1000.0,,,FUT,0.0,CL,CL
81093789,USD,NYMEX,20191120.0,False,CLZ9,1000.0,,,FUT,0.0,CL,CL
97589578,USD,NYMEX,20170822.0,False,CLU7,1000.0,,,FUT,0.0,CL,CL
97589583,USD,NYMEX,20201120.0,False,CLZ0,1000.0,,,FUT,0.0,CL,CL
97589585,USD,NYMEX,20170720.0,False,CLQ7,1000.0,,,FUT,0.0,CL,CL
97589588,USD,NYMEX,20170321.0,False,CLJ7,1000.0,,,FUT,0.0,CL,CL
97589595,USD,NYMEX,20170221.0,False,CLH7,1000.0,,,FUT,0.0,CL,CL
97589598,USD,NYMEX,20170120.0,False,CLG7,1000.0,,,FUT,0.0,CL,CL
97589602,USD,NYMEX,20170620.0,False,CLN7,1000.0,,,FUT,0.0,CL,CL
97589607,USD,NYMEX,20170420.0,False,CLK7,1000.0,,,FUT,0.0,CL,CL
97589608,USD,NYMEX,20200519.0,False,CLM0,1000.0,,,FUT,0.0,CL,CL
97589613,USD,NYMEX,20171020.0,False,CLX7,1000.0,,,FUT,0.0,CL,CL
97589619,USD,NYMEX,20170920.0,False,CLV7,1000.0,,,FUT,0.0,CL,CL
97589622,USD,NYMEX,20161220.0,False,CLF7,1000.0,,,FUT,0.0,CL,CL
117170239,USD,NYMEX,20180320.0,False,CLJ8,1000.0,,,FUT,0.0,CL,CL
117170242,USD,NYMEX,20180420.0,False,CLK8,1000.0,,,FUT,0.0,CL,CL
117170247,USD,NYMEX,20180220.0,False,CLH8,1000.0,,,FUT,0.0,CL,CL
117170248,USD,NYMEX,20180821.0,False,CLU8,1000.0,,,FUT,0.0,CL,CL
117170253,USD,NYMEX,20171219.0,False,CLF8,1000.0,,,FUT,0.0,CL,CL
117170259,USD,NYMEX,20180920.0,False,CLV8,1000.0,,,FUT,0.0,CL,CL
117170262,USD,NYMEX,20180122.0,False,CLG8,1000.0,,,FUT,0.0,CL,CL
117170265,USD,NYMEX,20210520.0,False,CLM1,1000.0,,,FUT,0.0,CL,CL
117170268,USD,NYMEX,20180720.0,False,CLQ8,1000.0,,,FUT,0.0,CL,CL
117170272,USD,NYMEX,20181022.0,False,CLX8,1000.0,,,FUT,0.0,CL,CL
117170277,USD,NYMEX,20180620.0,False,CLN8,1000.0,,,FUT,0.0,CL,CL
117170282,USD,NYMEX,20211119.0,False,CLZ1,1000.0,,,FUT,0.0,CL,CL
138979238,USD,NYMEX,20221121.0,False,CLZ2,1000.0,,,FUT,0.0,CL,CL
138979241,USD,NYMEX,20190422.0,False,CLK9,1000.0,,,FUT,0.0,CL,CL
138979244,USD,NYMEX,20190220.0,False,CLH9,1000.0,,,FUT,0.0,CL,CL
138979250,USD,NYMEX,20190920.0,False,CLV9,1000.0,,,FUT,0.0,CL,CL
138979255,USD,NYMEX,20190320.0,False,CLJ9,1000.0,,,FUT,0.0,CL,CL
138979256,USD,NYMEX,20181219.0,False,CLF9,1000.0,,,FUT,0.0,CL,CL
138979261,USD,NYMEX,20190620.0,False,CLN9,1000.0,,,FUT,0.0,CL,CL
138979264,USD,NYMEX,20190122.0,False,CLG9,1000.0,,,FUT,0.0,CL,CL
138979269,USD,NYMEX,20190722.0,False,CLQ9,1000.0,,,FUT,0.0,CL,CL
138979274,USD,NYMEX,20220520.0,False,CLM2,1000.0,,,FUT,0.0,CL,CL
138979279,USD,NYMEX,20190820.0,False,CLU9,1000.0,,,FUT,0.0,CL,CL
138979281,USD,NYMEX,20191022.0,False,CLX9,1000.0,,,FUT,0.0,CL,CL
174230593,USD,NYMEX,20191219.0,False,CLF0,1000.0,,,FUT,0.0,CL,CL
174230596,USD,NYMEX,20231120.0,False,CLZ3,1000.0,,,FUT,0.0,CL,CL
174230603,USD,NYMEX,20200421.0,False,CLK0,1000.0,,,FUT,0.0,CL,CL
174230606,USD,NYMEX,20201020.0,False,CLX0,1000.0,,,FUT,0.0,CL,CL
174230608,USD,NYMEX,20200922.0,False,CLV0,1000.0,,,FUT,0.0,CL,CL
174230613,USD,NYMEX,20230522.0,False,CLM3,1000.0,,,FUT,0.0,CL,CL
174230618,USD,NYMEX,20200820.0,False,CLU0,1000.0,,,FUT,0.0,CL,CL
174230623,USD,NYMEX,20200320.0,False,CLJ0,1000.0,,,FUT,0.0,CL,CL
174230627,USD,NYMEX,20200220.0,False,CLH0,1000.0,,,FUT,0.0,CL,CL
174230630,USD,NYMEX,20200121.0,False,CLG0,1000.0,,,FUT,0.0,CL,CL
174230633,USD,NYMEX,20200721.0,False,CLQ0,1000.0,,,FUT,0.0,CL,CL
174230636,USD,NYMEX,20200622.0,False,CLN0,1000.0,,,FUT,0.0,CL,CL
212921485,USD,NYMEX,20201221.0,False,CLF1,1000.0,,,FUT,0.0,CL,CL
212921491,USD,NYMEX,20210120.0,False,CLG1,1000.0,,,FUT,0.0,CL,CL
212921494,USD,NYMEX,20210222.0,False,CLH1,1000.0,,,FUT,0.0,CL,CL
212921497,USD,NYMEX,20210322.0,False,CLJ1,1000.0,,,FUT,0.0,CL,CL
212921500,USD,NYMEX,20210420.0,False,CLK1,1000.0,,,FUT,0.0,CL,CL
212921504,USD,NYMEX,20240521.0,False,CLM4,1000.0,,,FUT,0.0,CL,CL
212921509,USD,NYMEX,20210622.0,False,CLN1,1000.0,,,FUT,0.0,CL,CL
212921514,USD,NYMEX,20210720.0,False,CLQ1,1000.0,,,FUT,0.0,CL,CL
212921519,USD,NYMEX,20210820.0,False,CLU1,1000.0,,,FUT,0.0,CL,CL
212921521,USD,NYMEX,20210921.0,False,CLV1,1000.0,,,FUT,0.0,CL,CL
212921524,USD,NYMEX,20211020.0,False,CLX1,1000.0,,,FUT,0.0,CL,CL
212921531,USD,NYMEX,20241120.0,False,CLZ4,1000.0,,,FUT,0.0,CL,CL
226578853,EUR,DTB,20161216.0,False,FESX DEC 16,10.0,,,FUT,0.0,ESTX50,FESX
237122971,EUR,DTB,20170317.0,False,FESX MAR 17,10.0,,,FUT,0.0,ESTX50,FESX
248032328,EUR,DTB,20170616.0,False,FESX JUN 17,10.0,,,FUT,0.0,ESTX50,FESX
132757528,USD,GLOBEX,20171218.0,False,6EZ7,125000.0,,,FUT,0.0,EUR,6E
132757533,USD,GLOBEX,20180319.0,False,6EH8,125000.0,,,FUT,0.0,EUR,6E
132757537,USD,GLOBEX,20180618.0,False,6EM8,125000.0,,,FUT,0.0,EUR,6E
132757567,USD,GLOBEX,20161219.0,False,6EZ6,125000.0,,,FUT,0.0,EUR,6E
132757570,USD,GLOBEX,20170619.0,False,6EM7,125000.0,,,FUT,0.0,EUR,6E
132757575,USD,GLOBEX,20170313.0,False,6EH7,125000.0,,,FUT,0.0,EUR,6E
132757576,USD,GLOBEX,20170918.0,False,6EU7,125000.0,,,FUT,0.0,EUR,6E
134562295,USD,GLOBEX,20180917.0,False,6EU8,125000.0,,,FUT,0.0,EUR,6E
140081916,USD,GLOBEX,20181217.0,False,6EZ8,125000.0,,,FUT,0.0,EUR,6E
146293415,USD,GLOBEX,20190318.0,False,6EH9,125000.0,,,FUT,0.0,EUR,6E
156121181,USD,GLOBEX,20190617.0,False,6EM9,125000.0,,,FUT,0.0,EUR,6E
166727948,USD,GLOBEX,20190916.0,False,6EU9,125000.0,,,FUT,0.0,EUR,6E
176936576,USD,GLOBEX,20191216.0,False,6EZ9,125000.0,,,FUT,0.0,EUR,6E
187062342,USD,GLOBEX,20200316.0,False,6EH0,125000.0,,,FUT,0.0,EUR,6E
197010804,USD,GLOBEX,20200615.0,False,6EM0,125000.0,,,FUT,0.0,EUR,6E
206515776,USD,GLOBEX,20200914.0,False,6EU0,125000.0,,,FUT,0.0,EUR,6E
215229308,USD,GLOBEX,20201214.0,False,6EZ0,125000.0,,,FUT,0.0,EUR,6E
225389915,USD,GLOBEX,20210315.0,False,6EH1,125000.0,,,FUT,0.0,EUR,6E
236642141,USD,GLOBEX,20210614.0,False,6EM1,125000.0,,,FUT,0.0,EUR,6E
248025791,USD,GLOBEX,20210913.0,False,6EU1,125000.0,,,FUT,0.0,EUR,6E
82437028,USD,NYMEX,20161228.0,False,GCZ6,100.0,,,FUT,0.0,GC,GC
90384435,USD,NYMEX,20170628.0,False,GCM7,100.0,,,FUT,0.0,GC,GC
99782247,USD,NYMEX,20171227.0,False,GCZ7,100.0,,,FUT,0.0,GC,GC
109982131,USD,NYMEX,20180627.0,False,GCM8,100.0,,,FUT,0.0,GC,GC
119750076,USD,NYMEX,20181227.0,False,GCZ8,100.0,,,FUT,0.0,GC,GC
130450913,USD,NYMEX,20190626.0,False,GCM9,100.0,,,FUT,0.0,GC,GC
141194655,USD,NYMEX,20191227.0,False,GCZ9,100.0,,,FUT,0.0,GC,GC
158708412,USD,NYMEX,20200626.0,False,GCM0,100.0,,,FUT,0.0,GC,GC
175197438,USD,NYMEX,20161027.0,False,GCV6,100.0,,,FUT,0.0,GC,GC
178747429,USD,NYMEX,20201229.0,False,GCZ0,100.0,,,FUT,0.0,GC,GC
188989072,USD,NYMEX,20170224.0,False,GCG7,100.0,,,FUT,0.0,GC,GC
195730909,USD,NYMEX,20170426.0,False,GCJ7,100.0,,,FUT,0.0,GC,GC
198577650,USD,NYMEX,20210628.0,False,GCM1,100.0,,,FUT,0.0,GC,GC
208346823,USD,NYMEX,20170829.0,False,GCQ7,100.0,,,FUT,0.0,GC,GC
213898128,USD,NYMEX,20171027.0,False,GCV7,100.0,,,FUT,0.0,GC,GC
217648791,USD,NYMEX,20211229.0,False,GCZ1,100.0,,,FUT,0.0,GC,GC
227762820,USD,NYMEX,20180226.0,False,GCG8,100.0,,,FUT,0.0,GC,GC
235287994,USD,NYMEX,20180426.0,False,GCJ8,100.0,,,FUT,0.0,GC,GC
238666255,USD,NYMEX,20220628.0,False,GCM2,100.0,,,FUT,0.0,GC,GC
246307115,USD,NYMEX,20161128.0,False,GCX6,100.0,,,FUT,0.0,GC,GC
249498591,USD,NYMEX,20180829.0,False,GCQ8,100.0,,,FUT,0.0,GC,GC
132757266,USD,GLOBEX,20161219.0,False,6BZ6,62500.0,,,FUT,0.0,GBP,6B
132757271,USD,GLOBEX,20170313.0,False,6BH7,62500.0,,,FUT,0.0,GBP,6B
132757272,USD,GLOBEX,20170918.0,False,6BU7,62500.0,,,FUT,0.0,GBP,6B
132757277,USD,GLOBEX,20171218.0,False,6BZ7,62500.0,,,FUT,0.0,GBP,6B
132757281,USD,GLOBEX,20180319.0,False,6BH8,62500.0,,,FUT,0.0,GBP,6B
132757284,USD,GLOBEX,20170619.0,False,6BM7,62500.0,,,FUT,0.0,GBP,6B
132757291,USD,GLOBEX,20180618.0,False,6BM8,62500.0,,,FUT,0.0,GBP,6B
134471930,USD,GLOBEX,20180917.0,False,6BU8,62500.0,,,FUT,0.0,GBP,6B
140081806,USD,GLOBEX,20181217.0,False,6BZ8,62500.0,,,FUT,0.0,GBP,6B
146293416,USD,GLOBEX,20190318.0,False,6BH9,62500.0,,,FUT,0.0,GBP,6B
156121090,USD,GLOBEX,20190617.0,False,6BM9,62500.0,,,FUT,0.0,GBP,6B
166728013,USD,GLOBEX,20190916.0,False,6BU9,62500.0,,,FUT,0.0,GBP,6B
176936596,USD,GLOBEX,20191216.0,False,6BZ9,62500.0,,,FUT,0.0,GBP,6B
187062434,USD,GLOBEX,20200316.0,False,6BH0,62500.0,,,FUT,0.0,GBP,6B
197010851,USD,GLOBEX,20200615.0,False,6BM0,62500.0,,,FUT,0.0,GBP,6B
206515713,USD,GLOBEX,20200914.0,False,6BU0,62500.0,,,FUT,0.0,GBP,6B
215229321,USD,GLOBEX,20201214.0,False,6BZ0,62500.0,,,FUT,0.0,GBP,6B
225389961,USD,GLOBEX,20210315.0,False,6BH1,62500.0,,,FUT,0.0,GBP,6B
236642130,USD,GLOBEX,20210614.0,False,6BM1,62500.0,,,FUT,0.0,GBP,6B
248025679,USD,GLOBEX,20210913.0,False,6BU1,62500.0,,,FUT,0.0,GBP,6B
99782238,USD,NYMEX,20161228.0,False,HGZ6,25000.0,,,FUT,0.0,HG,HG
105275909,USD,NYMEX,20170329.0,False,HGH7,25000.0,,,FUT,0.0,HG,HG
108182964,USD,NYMEX,20170526.0,False,HGK7,25000.0,,,FUT,0.0,HG,HG
111536979,USD,NYMEX,20170727.0,False,HGN7,25000.0,,,FUT,0.0,HG,HG
114722693,USD,NYMEX,20170927.0,False,HGU7,25000.0,,,FUT,0.0,HG,HG
119750055,USD,NYMEX,20171227.0,False,HGZ7,25000.0,,,FUT,0.0,HG,HG
125076642,USD,NYMEX,20180327.0,False,HGH8,25000.0,,,FUT,0.0,HG,HG
128564407,USD,NYMEX,20180529.0,False,HGK8,25000.0,,,FUT,0.0,HG,HG
132227497,USD,NYMEX,20180727.0,False,HGN8,25000.0,,,FUT,0.0,HG,HG
135595196,USD,NYMEX,20180926.0,False,HGU8,25000.0,,,FUT,0.0,HG,HG
141194640,USD,NYMEX,20181227.0,False,HGZ8,25000.0,,,FUT,0.0,HG,HG
147555243,USD,NYMEX,20190327.0,False,HGH9,25000.0,,,FUT,0.0,HG,HG
153143170,USD,NYMEX,20190529.0,False,HGK9,25000.0,,,FUT,0.0,HG,HG
162382944,USD,NYMEX,20190729.0,False,HGN9,25000.0,,,FUT,0.0,HG,HG
168550400,USD,NYMEX,20190926.0,False,HGU9,25000.0,,,FUT,0.0,HG,HG
172283699,USD,NYMEX,20161027.0,False,HGV6,25000.0,,,FUT,0.0,HG,HG
175197423,USD,NYMEX,20161128.0,False,HGX6,25000.0,,,FUT,0.0,HG,HG
178747451,USD,NYMEX,20191227.0,False,HGZ9,25000.0,,,FUT,0.0,HG,HG
182284229,USD,NYMEX,20170127.0,False,HGF7,25000.0,,,FUT,0.0,HG,HG
185368581,USD,NYMEX,20170224.0,False,HGG7,25000.0,,,FUT,0.0,HG,HG
188989087,USD,NYMEX,20200327.0,False,HGH0,25000.0,,,FUT,0.0,HG,HG
192379964,USD,NYMEX,20170426.0,False,HGJ7,25000.0,,,FUT,0.0,HG,HG
195730913,USD,NYMEX,20200527.0,False,HGK0,25000.0,,,FUT,0.0,HG,HG
198577675,USD,NYMEX,20170628.0,False,HGM7,25000.0,,,FUT,0.0,HG,HG
201720953,USD,NYMEX,20200729.0,False,HGN0,25000.0,,,FUT,0.0,HG,HG
205304455,USD,NYMEX,20170829.0,False,HGQ7,25000.0,,,FUT,0.0,HG,HG
208346815,USD,NYMEX,20200928.0,False,HGU0,25000.0,,,FUT,0.0,HG,HG
211144564,USD,NYMEX,20171027.0,False,HGV7,25000.0,,,FUT,0.0,HG,HG
213898138,USD,NYMEX,20171128.0,False,HGX7,25000.0,,,FUT,0.0,HG,HG
217648780,USD,NYMEX,20201229.0,False,HGZ0,25000.0,,,FUT,0.0,HG,HG
220677502,USD,NYMEX,20180129.0,False,HGF8,25000.0,,,FUT,0.0,HG,HG
224023196,USD,NYMEX,20180226.0,False,HGG8,25000.0,,,FUT,0.0,HG,HG
227762801,USD,NYMEX,20210329.0,False,HGH1,25000.0,,,FUT,0.0,HG,HG
231491025,USD,NYMEX,20180426.0,False,HGJ8,25000.0,,,FUT,0.0,HG,HG
235288025,USD,NYMEX,20210526.0,False,HGK1,25000.0,,,FUT,0.0,HG,HG
238666230,USD,NYMEX,20180627.0,False,HGM8,25000.0,,,FUT,0.0,HG,HG
242163668,USD,NYMEX,20210728.0,False,HGN1,25000.0,,,FUT,0.0,HG,HG
246307118,USD,NYMEX,20180829.0,False,HGQ8,25000.0,,,FUT,0.0,HG,HG
249498586,USD,NYMEX,20210928.0,False,HGU1,25000.0,,,FUT,0.0,HG,HG
118036346,USD,NYMEX,20161230.0,False,HOF7,42000.0,,,FUT,0.0,HO,HO
118036357,USD,NYMEX,20161130.0,False,HOZ6,42000.0,,,FUT,0.0,HO,HO
118036372,USD,NYMEX,20161031.0,False,HOX6,42000.0,,,FUT,0.0,HO,HO
139384373,USD,NYMEX,20170731.0,False,HOQ7,42000.0,,,FUT,0.0,HO,HO
139384378,USD,NYMEX,20171130.0,False,HOZ7,42000.0,,,FUT,0.0,HO,HO
139384383,USD,NYMEX,20170131.0,False,HOG7,42000.0,,,FUT,0.0,HO,HO
139384386,USD,NYMEX,20170331.0,False,HOJ7,42000.0,,,FUT,0.0,HO,HO
139384391,USD,NYMEX,20170228.0,False,HOH7,42000.0,,,FUT,0.0,HO,HO
139384392,USD,NYMEX,20171229.0,False,HOF8,42000.0,,,FUT,0.0,HO,HO
139384397,USD,NYMEX,20170831.0,False,HOU7,42000.0,,,FUT,0.0,HO,HO
139384403,USD,NYMEX,20170428.0,False,HOK7,42000.0,,,FUT,0.0,HO,HO
139384406,USD,NYMEX,20170929.0,False,HOV7,42000.0,,,FUT,0.0,HO,HO
139384409,USD,NYMEX,20170531.0,False,HOM7,42000.0,,,FUT,0.0,HO,HO
139384412,USD,NYMEX,20170630.0,False,HON7,42000.0,,,FUT,0.0,HO,HO
139384416,USD,NYMEX,20171031.0,False,HOX7,42000.0,,,FUT,0.0,HO,HO
175454392,USD,NYMEX,20181031.0,False,HOX8,42000.0,,,FUT,0.0,HO,HO
175454397,USD,NYMEX,20181130.0,False,HOZ8,42000.0,,,FUT,0.0,HO,HO
175454400,USD,NYMEX,20180531.0,False,HOM8,42000.0,,,FUT,0.0,HO,HO
175454405,USD,NYMEX,20180228.0,False,HOH8,42000.0,,,FUT,0.0,HO,HO
175454410,USD,NYMEX,20180928.0,False,HOV8,42000.0,,,FUT,0.0,HO,HO
175454415,USD,NYMEX,20180731.0,False,HOQ8,42000.0,,,FUT,0.0,HO,HO
175454417,USD,NYMEX,20180430.0,False,HOK8,42000.0,,,FUT,0.0,HO,HO
175454420,USD,NYMEX,20180329.0,False,HOJ8,42000.0,,,FUT,0.0,HO,HO
175454427,USD,NYMEX,20180831.0,False,HOU8,42000.0,,,FUT,0.0,HO,HO
175454430,USD,NYMEX,20181231.0,False,HOF9,42000.0,,,FUT,0.0,HO,HO
175454434,USD,NYMEX,20180629.0,False,HON8,42000.0,,,FUT,0.0,HO,HO
175454439,USD,NYMEX,20180131.0,False,HOG8,42000.0,,,FUT,0.0,HO,HO
214100622,USD,NYMEX,20191231.0,False,HOF0,42000.0,,,FUT,0.0,HO,HO
214100624,USD,NYMEX,20190131.0,False,HOG9,42000.0,,,FUT,0.0,HO,HO
214100629,USD,NYMEX,20190228.0,False,HOH9,42000.0,,,FUT,0.0,HO,HO
214100634,USD,NYMEX,20190329.0,False,HOJ9,42000.0,,,FUT,0.0,HO,HO
214100639,USD,NYMEX,20190430.0,False,HOK9,42000.0,,,FUT,0.0,HO,HO
214100643,USD,NYMEX,20190531.0,False,HOM9,42000.0,,,FUT,0.0,HO,HO
214100646,USD,NYMEX,20190628.0,False,HON9,42000.0,,,FUT,0.0,HO,HO
214100649,USD,NYMEX,20190731.0,False,HOQ9,42000.0,,,FUT,0.0,HO,HO
214100652,USD,NYMEX,20190830.0,False,HOU9,42000.0,,,FUT,0.0,HO,HO
214100658,USD,NYMEX,20190930.0,False,HOV9,42000.0,,,FUT,0.0,HO,HO
214100663,USD,NYMEX,20191031.0,False,HOX9,42000.0,,,FUT,0.0,HO,HO
214100664,USD,NYMEX,20191129.0,False,HOZ9,42000.0,,,FUT,0.0,HO,HO
132757334,USD,GLOBEX,20170313.0,False,6JH7,12500000.0,,,FUT,0.0,JPY,6J
132757337,USD,GLOBEX,20170619.0,False,6JM7,12500000.0,,,FUT,0.0,JPY,6J
132757340,USD,GLOBEX,20170918.0,False,6JU7,12500000.0,,,FUT,0.0,JPY,6J
132757344,USD,GLOBEX,20171218.0,False,6JZ7,12500000.0,,,FUT,0.0,JPY,6J
132757349,USD,GLOBEX,20180319.0,False,6JH8,12500000.0,,,FUT,0.0,JPY,6J
132757354,USD,GLOBEX,20180618.0,False,6JM8,12500000.0,,,FUT,0.0,JPY,6J
132757359,USD,GLOBEX,20161219.0,False,6JZ6,12500000.0,,,FUT,0.0,JPY,6J
134471782,USD,GLOBEX,20180917.0,False,6JU8,12500000.0,,,FUT,0.0,JPY,6J
140081942,USD,GLOBEX,20181217.0,False,6JZ8,12500000.0,,,FUT,0.0,JPY,6J
146293376,USD,GLOBEX,20190318.0,False,6JH9,12500000.0,,,FUT,0.0,JPY,6J
156121095,USD,GLOBEX,20190617.0,False,6JM9,12500000.0,,,FUT,0.0,JPY,6J
166728090,USD,GLOBEX,20190916.0,False,6JU9,12500000.0,,,FUT,0.0,JPY,6J
176936722,USD,GLOBEX,20191216.0,False,6JZ9,12500000.0,,,FUT,0.0,JPY,6J
187062581,USD,GLOBEX,20200316.0,False,6JH0,12500000.0,,,FUT,0.0,JPY,6J
197010820,USD,GLOBEX,20200615.0,False,6JM0,12500000.0,,,FUT,0.0,JPY,6J
206515664,USD,GLOBEX,20200914.0,False,6JU0,12500000.0,,,FUT,0.0,JPY,6J
215229358,USD,GLOBEX,20201214.0,False,6JZ0,12500000.0,,,FUT,0.0,JPY,6J
225390000,USD,GLOBEX,20210315.0,False,6JH1,12500000.0,,,FUT,0.0,JPY,6J
236642056,USD,GLOBEX,20210614.0,False,6JM1,12500000.0,,,FUT,0.0,JPY,6J
248025805,USD,GLOBEX,20210913.0,False,6JU1,12500000.0,,,FUT,0.0,JPY,6J
141358995,USD,NYBOT,20161219.0,False,KCZ6,37500.0,,,FUT,0.0,KC,KC
147650142,USD,NYBOT,20170321.0,False,KCH7,37500.0,,,FUT,0.0,KC,KC
153481911,USD,NYBOT,20170518.0,False,KCK7,37500.0,,,FUT,0.0,KC,KC
162749905,USD,NYBOT,20170719.0,False,KCN7,37500.0,,,FUT,0.0,KC,KC
168907763,USD,NYBOT,20170919.0,False,KCU7,37500.0,,,FUT,0.0,KC,KC
179029817,USD,NYBOT,20171218.0,False,KCZ7,37500.0,,,FUT,0.0,KC,KC
189284061,USD,NYBOT,20180319.0,False,KCH8,37500.0,,,FUT,0.0,KC,KC
196110748,USD,NYBOT,20180518.0,False,KCK8,37500.0,,,FUT,0.0,KC,KC
202059707,USD,NYBOT,20180719.0,False,KCN8,37500.0,,,FUT,0.0,KC,KC
208561321,USD,NYBOT,20180918.0,False,KCU8,37500.0,,,FUT,0.0,KC,KC
217935089,USD,NYBOT,20181218.0,False,KCZ8,37500.0,,,FUT,0.0,KC,KC
228089653,USD,NYBOT,20190319.0,False,KCH9,37500.0,,,FUT,0.0,KC,KC
235596848,USD,NYBOT,20190520.0,False,KCK9,37500.0,,,FUT,0.0,KC,KC
242691552,USD,NYBOT,20190719.0,False,KCN9,37500.0,,,FUT,0.0,KC,KC
250067302,USD,NYBOT,20190918.0,False,KCU9,37500.0,,,FUT,0.0,KC,KC
192655408,USD,GLOBEX,20161031.0,False,LEV6,40000.0,,,FUT,0.0,LE,LE
198690320,USD,GLOBEX,20161230.0,False,LEZ6,40000.0,,,FUT,0.0,LE,LE
205420488,USD,GLOBEX,20170228.0,False,LEG7,40000.0,,,FUT,0.0,LE,LE
211434610,USD,GLOBEX,20170428.0,False,LEJ7,40000.0,,,FUT,0.0,LE,LE
222669949,USD,GLOBEX,20170630.0,False,LEM7,40000.0,,,FUT,0.0,LE,LE
224162685,USD,GLOBEX,20170831.0,False,LEQ7,40000.0,,,FUT,0.0,LE,LE
244198715,USD,GLOBEX,20171031.0,False,LEV7,40000.0,,,FUT,0.0,LE,LE
250094962,USD,GLOBEX,20171229.0,False,LEZ7,40000.0,,,FUT,0.0,LE,LE
194427788,USD,GLOBEX,20161219.0,False,6MZ6,500000.0,,,FUT,0.0,MXP,6M
203329414,USD,GLOBEX,20170313.0,False,6MH7,500000.0,,,FUT,0.0,MXP,6M
209763170,USD,GLOBEX,20161114.0,False,6MX6,500000.0,,,FUT,0.0,MXP,6M
212579140,USD,GLOBEX,20170619.0,False,6MM7,500000.0,,,FUT,0.0,MXP,6M
215229318,USD,GLOBEX,20170113.0,False,6MF7,500000.0,,,FUT,0.0,MXP,6M
218978786,USD,GLOBEX,20170213.0,False,6MG7,500000.0,,,FUT,0.0,MXP,6M
222321879,USD,GLOBEX,20170918.0,False,6MU7,500000.0,,,FUT,0.0,MXP,6M
225389958,USD,GLOBEX,20170417.0,False,6MJ7,500000.0,,,FUT,0.0,MXP,6M
229757144,USD,GLOBEX,20170515.0,False,6MK7,500000.0,,,FUT,0.0,MXP,6M
233527963,USD,GLOBEX,20171218.0,False,6MZ7,500000.0,,,FUT,0.0,MXP,6M
236642135,USD,GLOBEX,20170717.0,False,6MN7,500000.0,,,FUT,0.0,MXP,6M
240750195,USD,GLOBEX,20170814.0,False,6MQ7,500000.0,,,FUT,0.0,MXP,6M
243797171,USD,GLOBEX,20180319.0,False,6MH8,500000.0,,,FUT,0.0,MXP,6M
248025655,USD,GLOBEX,20171016.0,False,6MV7,500000.0,,,FUT,0.0,MXP,6M
252107656,USD,GLOBEX,20171113.0,False,6MX7,500000.0,,,FUT,0.0,MXP,6M
214836391,USD,GLOBEX,20161208.0,False,NKDZ6,5.0,,,FUT,0.0,NKD,NKD
225136248,USD,GLOBEX,20170309.0,False,NKDH7,5.0,,,FUT,0.0,NKD,NKD
236346703,USD,GLOBEX,20170608.0,False,NKDM7,5.0,,,FUT,0.0,NKD,NKD
247331435,USD,GLOBEX,20170907.0,False,NKDU7,5.0,,,FUT,0.0,NKD,NKD
48971220,USD,NYMEX,20161027.0,False,NGX6,10000.0,,,FUT,0.0,NG,NG
48971227,USD,NYMEX,20161128.0,False,NGZ6,10000.0,,,FUT,0.0,NG,NG
56197162,USD,NYMEX,20161228.0,False,NGF7,10000.0,,,FUT,0.0,NG,NG
56197167,USD,NYMEX,20170127.0,False,NGG7,10000.0,,,FUT,0.0,NG,NG
56197169,USD,NYMEX,20170224.0,False,NGH7,10000.0,,,FUT,0.0,NG,NG
56197172,USD,NYMEX,20170329.0,False,NGJ7,10000.0,,,FUT,0.0,NG,NG
56197179,USD,NYMEX,20170426.0,False,NGK7,10000.0,,,FUT,0.0,NG,NG
56197182,USD,NYMEX,20170526.0,False,NGM7,10000.0,,,FUT,0.0,NG,NG
56197187,USD,NYMEX,20170628.0,False,NGN7,10000.0,,,FUT,0.0,NG,NG
56197190,USD,NYMEX,20170727.0,False,NGQ7,10000.0,,,FUT,0.0,NG,NG
56197193,USD,NYMEX,20170829.0,False,NGU7,10000.0,,,FUT,0.0,NG,NG
56197196,USD,NYMEX,20170927.0,False,NGV7,10000.0,,,FUT,0.0,NG,NG
56197202,USD,NYMEX,20171027.0,False,NGX7,10000.0,,,FUT,0.0,NG,NG
56197207,USD,NYMEX,20171128.0,False,NGZ7,10000.0,,,FUT,0.0,NG,NG
70558045,USD,NYMEX,20171227.0,False,NGF8,10000.0,,,FUT,0.0,NG,NG
70558049,USD,NYMEX,20180129.0,False,NGG8,10000.0,,,FUT,0.0,NG,NG
70558052,USD,NYMEX,20180226.0,False,NGH8,10000.0,,,FUT,0.0,NG,NG
70558059,USD,NYMEX,20180327.0,False,NGJ8,10000.0,,,FUT,0.0,NG,NG
70558062,USD,NYMEX,20180426.0,False,NGK8,10000.0,,,FUT,0.0,NG,NG
70558064,USD,NYMEX,20180529.0,False,NGM8,10000.0,,,FUT,0.0,NG,NG
70558069,USD,NYMEX,20180627.0,False,NGN8,10000.0,,,FUT,0.0,NG,NG
70558074,USD,NYMEX,20180727.0,False,NGQ8,10000.0,,,FUT,0.0,NG,NG
70558079,USD,NYMEX,20180829.0,False,NGU8,10000.0,,,FUT,0.0,NG,NG
70558080,USD,NYMEX,20180926.0,False,NGV8,10000.0,,,FUT,0.0,NG,NG
70558085,USD,NYMEX,20181029.0,False,NGX8,10000.0,,,FUT,0.0,NG,NG
70609269,USD,NYMEX,20181128.0,False,NGZ8,10000.0,,,FUT,0.0,NG,NG
81596297,USD,NYMEX,20181227.0,False,NGF9,10000.0,,,FUT,0.0,NG,NG
81596311,USD,NYMEX,20190129.0,False,NGG9,10000.0,,,FUT,0.0,NG,NG
81596312,USD,NYMEX,20190226.0,False,NGH9,10000.0,,,FUT,0.0,NG,NG
81596321,USD,NYMEX,20190327.0,False,NGJ9,10000.0,,,FUT,0.0,NG,NG
81596324,USD,NYMEX,20190426.0,False,NGK9,10000.0,,,FUT,0.0,NG,NG
81596331,USD,NYMEX,20190529.0,False,NGM9,10000.0,,,FUT,0.0,NG,NG
81596336,USD,NYMEX,20190626.0,False,NGN9,10000.0,,,FUT,0.0,NG,NG
81596341,USD,NYMEX,20190729.0,False,NGQ9,10000.0,,,FUT,0.0,NG,NG
81596346,USD,NYMEX,20190828.0,False,NGU9,10000.0,,,FUT,0.0,NG,NG
81596351,USD,NYMEX,20190926.0,False,NGV9,10000.0,,,FUT,0.0,NG,NG
81596354,USD,NYMEX,20191029.0,False,NGX9,10000.0,,,FUT,0.0,NG,NG
81596359,USD,NYMEX,20191126.0,False,NGZ9,10000.0,,,FUT,0.0,NG,NG
98307971,USD,NYMEX,20191227.0,False,NGF0,10000.0,,,FUT,0.0,NG,NG
98307974,USD,NYMEX,20200129.0,False,NGG0,10000.0,,,FUT,0.0,NG,NG
98307977,USD,NYMEX,20200226.0,False,NGH0,10000.0,,,FUT,0.0,NG,NG
98307980,USD,NYMEX,20200327.0,False,NGJ0,10000.0,,,FUT,0.0,NG,NG
98307986,USD,NYMEX,20200428.0,False,NGK0,10000.0,,,FUT,0.0,NG,NG
98307991,USD,NYMEX,20200527.0,False,NGM0,10000.0,,,FUT,0.0,NG,NG
98307992,USD,NYMEX,20200626.0,False,NGN0,10000.0,,,FUT,0.0,NG,NG
98307997,USD,NYMEX,20200729.0,False,NGQ0,10000.0,,,FUT,0.0,NG,NG
98308001,USD,NYMEX,20200827.0,False,NGU0,10000.0,,,FUT,0.0,NG,NG
98308004,USD,NYMEX,20200928.0,False,NGV0,10000.0,,,FUT,0.0,NG,NG
98308011,USD,NYMEX,20201028.0,False,NGX0,10000.0,,,FUT,0.0,NG,NG
98308014,USD,NYMEX,20201125.0,False,NGZ0,10000.0,,,FUT,0.0,NG,NG
121882394,USD,NYMEX,20201229.0,False,NGF1,10000.0,,,FUT,0.0,NG,NG
121882399,USD,NYMEX,20210127.0,False,NGG1,10000.0,,,FUT,0.0,NG,NG
121882403,USD,NYMEX,20210224.0,False,NGH1,10000.0,,,FUT,0.0,NG,NG
121882406,USD,NYMEX,20210329.0,False,NGJ1,10000.0,,,FUT,0.0,NG,NG
121882409,USD,NYMEX,20210428.0,False,NGK1,10000.0,,,FUT,0.0,NG,NG
121882412,USD,NYMEX,20210526.0,False,NGM1,10000.0,,,FUT,0.0,NG,NG
121882418,USD,NYMEX,20210628.0,False,NGN1,10000.0,,,FUT,0.0,NG,NG
121882423,USD,NYMEX,20210728.0,False,NGQ1,10000.0,,,FUT,0.0,NG,NG
121882424,USD,NYMEX,20210827.0,False,NGU1,10000.0,,,FUT,0.0,NG,NG
121882429,USD,NYMEX,20210928.0,False,NGV1,10000.0,,,FUT,0.0,NG,NG
121882432,USD,NYMEX,20211027.0,False,NGX1,10000.0,,,FUT,0.0,NG,NG
121882437,USD,NYMEX,20211126.0,False,NGZ1,10000.0,,,FUT,0.0,NG,NG
139213984,USD,NYMEX,20220127.0,False,NGG2,10000.0,,,FUT,0.0,NG,NG
139213989,USD,NYMEX,20221128.0,False,NGZ2,10000.0,,,FUT,0.0,NG,NG
139213994,USD,NYMEX,20211229.0,False,NGF2,10000.0,,,FUT,0.0,NG,NG
139213999,USD,NYMEX,20220224.0,False,NGH2,10000.0,,,FUT,0.0,NG,NG
139214001,USD,NYMEX,20220329.0,False,NGJ2,10000.0,,,FUT,0.0,NG,NG
139214004,USD,NYMEX,20220628.0,False,NGN2,10000.0,,,FUT,0.0,NG,NG
139214011,USD,NYMEX,20221027.0,False,NGX2,10000.0,,,FUT,0.0,NG,NG
139214014,USD,NYMEX,20220526.0,False,NGM2,10000.0,,,FUT,0.0,NG,NG
139214019,USD,NYMEX,20220727.0,False,NGQ2,10000.0,,,FUT,0.0,NG,NG
139214022,USD,NYMEX,20220427.0,False,NGK2,10000.0,,,FUT,0.0,NG,NG
139214025,USD,NYMEX,20220829.0,False,NGU2,10000.0,,,FUT,0.0,NG,NG
139214028,USD,NYMEX,20220928.0,False,NGV2,10000.0,,,FUT,0.0,NG,NG
139904969,USD,NYMEX,20230829.0,False,NGU3,10000.0,,,FUT,0.0,NG,NG
139904972,USD,NYMEX,20230426.0,False,NGK3,10000.0,,,FUT,0.0,NG,NG
139904978,USD,NYMEX,20230727.0,False,NGQ3,10000.0,,,FUT,0.0,NG,NG
139904983,USD,NYMEX,20230329.0,False,NGJ3,10000.0,,,FUT,0.0,NG,NG
139904984,USD,NYMEX,20221228.0,False,NGF3,10000.0,,,FUT,0.0,NG,NG
139904989,USD,NYMEX,20230628.0,False,NGN3,10000.0,,,FUT,0.0,NG,NG
139904993,USD,NYMEX,20230526.0,False,NGM3,10000.0,,,FUT,0.0,NG,NG
139904996,USD,NYMEX,20230127.0,False,NGG3,10000.0,,,FUT,0.0,NG,NG
139905003,USD,NYMEX,20230224.0,False,NGH3,10000.0,,,FUT,0.0,NG,NG
139905006,USD,NYMEX,20230927.0,False,NGV3,10000.0,,,FUT,0.0,NG,NG
141138623,USD,NYMEX,20231027.0,False,NGX3,10000.0,,,FUT,0.0,NG,NG
143315713,USD,NYMEX,20231128.0,False,NGZ3,10000.0,,,FUT,0.0,NG,NG
145141350,USD,NYMEX,20231227.0,False,NGF4,10000.0,,,FUT,0.0,NG,NG
147359951,USD,NYMEX,20240129.0,False,NGG4,10000.0,,,FUT,0.0,NG,NG
149968775,USD,NYMEX,20240227.0,False,NGH4,10000.0,,,FUT,0.0,NG,NG
153028899,USD,NYMEX,20240326.0,False,NGJ4,10000.0,,,FUT,0.0,NG,NG
158308035,USD,NYMEX,20240426.0,False,NGK4,10000.0,,,FUT,0.0,NG,NG
162277706,USD,NYMEX,20240529.0,False,NGM4,10000.0,,,FUT,0.0,NG,NG
165268985,USD,NYMEX,20240626.0,False,NGN4,10000.0,,,FUT,0.0,NG,NG
168509137,USD,NYMEX,20240729.0,False,NGQ4,10000.0,,,FUT,0.0,NG,NG
172201050,USD,NYMEX,20240828.0,False,NGU4,10000.0,,,FUT,0.0,NG,NG
175038710,USD,NYMEX,20240926.0,False,NGV4,10000.0,,,FUT,0.0,NG,NG
178576429,USD,NYMEX,20241029.0,False,NGX4,10000.0,,,FUT,0.0,NG,NG
182136470,USD,NYMEX,20241126.0,False,NGZ4,10000.0,,,FUT,0.0,NG,NG
185228810,USD,NYMEX,20241227.0,False,NGF5,10000.0,,,FUT,0.0,NG,NG
188874960,USD,NYMEX,20250129.0,False,NGG5,10000.0,,,FUT,0.0,NG,NG
192292178,USD,NYMEX,20250226.0,False,NGH5,10000.0,,,FUT,0.0,NG,NG
195641758,USD,NYMEX,20250327.0,False,NGJ5,10000.0,,,FUT,0.0,NG,NG
197375912,USD,NYMEX,20250528.0,False,NGM5,10000.0,,,FUT,0.0,NG,NG
198529972,USD,NYMEX,20250428.0,False,NGK5,10000.0,,,FUT,0.0,NG,NG
206848418,USD,GLOBEX,20161216.0,False,NQZ6,20.0,,,FUT,0.0,NQ,NQ
215465475,USD,GLOBEX,20170317.0,False,NQH7,20.0,,,FUT,0.0,NQ,NQ
225652214,USD,GLOBEX,20170616.0,False,NQM7,20.0,,,FUT,0.0,NQ,NQ
236950080,USD,GLOBEX,20170915.0,False,NQU7,20.0,,,FUT,0.0,NQ,NQ
247950591,USD,GLOBEX,20171215.0,False,NQZ7,20.0,,,FUT,0.0,NQ,NQ
139499466,USD,NYBOT,20161109.0,False,OJX6,15000.0,,,FUT,0.0,OJ,OJ
143650846,USD,NYBOT,20170110.0,False,OJF7,15000.0,,,FUT,0.0,OJ,OJ
147650152,USD,NYBOT,20170313.0,False,OJH7,15000.0,,,FUT,0.0,OJ,OJ
153481906,USD,NYBOT,20170510.0,False,OJK7,15000.0,,,FUT,0.0,OJ,OJ
162749927,USD,NYBOT,20170711.0,False,OJN7,15000.0,,,FUT,0.0,OJ,OJ
168907752,USD,NYBOT,20170911.0,False,OJU7,15000.0,,,FUT,0.0,OJ,OJ
175676363,USD,NYBOT,20171109.0,False,OJX7,15000.0,,,FUT,0.0,OJ,OJ
182741673,USD,NYBOT,20180110.0,False,OJF8,15000.0,,,FUT,0.0,OJ,OJ
189284068,USD,NYBOT,20180309.0,False,OJH8,15000.0,,,FUT,0.0,OJ,OJ
196110757,USD,NYBOT,20180510.0,False,OJK8,15000.0,,,FUT,0.0,OJ,OJ
202059690,USD,NYBOT,20180711.0,False,OJN8,15000.0,,,FUT,0.0,OJ,OJ
208561318,USD,NYBOT,20180910.0,False,OJU8,15000.0,,,FUT,0.0,OJ,OJ
214160441,USD,NYBOT,20181109.0,False,OJX8,15000.0,,,FUT,0.0,OJ,OJ
221110936,USD,NYBOT,20190110.0,False,OJF9,15000.0,,,FUT,0.0,OJ,OJ
228089663,USD,NYBOT,20190311.0,False,OJH9,15000.0,,,FUT,0.0,OJ,OJ
235596853,USD,NYBOT,20190510.0,False,OJK9,15000.0,,,FUT,0.0,OJ,OJ
242691557,USD,NYBOT,20190711.0,False,OJN9,15000.0,,,FUT,0.0,OJ,OJ
250067295,USD,NYBOT,20190910.0,False,OJU9,15000.0,,,FUT,0.0,OJ,OJ
208279116,USD,NYMEX,20161228.0,False,PAZ6,100.0,,,FUT,0.0,PA,PA
217602601,USD,NYMEX,20170329.0,False,PAH7,100.0,,,FUT,0.0,PA,PA
227695990,USD,NYMEX,20170628.0,False,PAM7,100.0,,,FUT,0.0,PA,PA
238497517,USD,NYMEX,20170927.0,False,PAU7,100.0,,,FUT,0.0,PA,PA
242064749,USD,NYMEX,20161027.0,False,PAV6,100.0,,,FUT,0.0,PA,PA
245514638,USD,NYMEX,20161128.0,False,PAX6,100.0,,,FUT,0.0,PA,PA
249361805,USD,NYMEX,20171227.0,False,PAZ7,100.0,,,FUT,0.0,PA,PA
201632211,USD,NYMEX,20161027.0,False,PLV6,50.0,,,FUT,0.0,PL,PL
211080365,USD,NYMEX,20170127.0,False,PLF7,50.0,,,FUT,0.0,PL,PL
220625889,USD,NYMEX,20170426.0,False,PLJ7,50.0,,,FUT,0.0,PL,PL
231380069,USD,NYMEX,20170727.0,False,PLN7,50.0,,,FUT,0.0,PL,PL
242064755,USD,NYMEX,20171027.0,False,PLV7,50.0,,,FUT,0.0,PL,PL
245514628,USD,NYMEX,20161128.0,False,PLX6,50.0,,,FUT,0.0,PL,PL
249361811,USD,NYMEX,20161228.0,False,PLZ6,50.0,,,FUT,0.0,PL,PL
147650139,USD,NYBOT,20170228.0,False,SBH7,112000.0,,,FUT,0.0,SB,SB
153481917,USD,NYBOT,20170428.0,False,SBK7,112000.0,,,FUT,0.0,SB,SB
162749918,USD,NYBOT,20170630.0,False,SBN7,112000.0,,,FUT,0.0,SB,SB
172683042,USD,NYBOT,20170929.0,False,SBV7,112000.0,,,FUT,0.0,SB,SB
189284080,USD,NYBOT,20180228.0,False,SBH8,112000.0,,,FUT,0.0,SB,SB
196110742,USD,NYBOT,20180430.0,False,SBK8,112000.0,,,FUT,0.0,SB,SB
202059710,USD,NYBOT,20180629.0,False,SBN8,112000.0,,,FUT,0.0,SB,SB
211582200,USD,NYBOT,20180928.0,False,SBV8,112000.0,,,FUT,0.0,SB,SB
228089666,USD,NYBOT,20190228.0,False,SBH9,112000.0,,,FUT,0.0,SB,SB
235596836,USD,NYBOT,20190430.0,False,SBK9,112000.0,,,FUT,0.0,SB,SB
242691562,USD,NYBOT,20190628.0,False,SBN9,112000.0,,,FUT,0.0,SB,SB
98512221,USD,GLOBEX,20161215.0,False,SPZ6,250.0,,,FUT,0.0,SPX,SP
118756537,USD,GLOBEX,20171214.0,False,SPZ7,250.0,,,FUT,0.0,SPX,SP
139821735,USD,GLOBEX,20181220.0,False,SPZ8,250.0,,,FUT,0.0,SPX,SP
176400900,USD,GLOBEX,20191219.0,False,SPZ9,250.0,,,FUT,0.0,SPX,SP
186483101,USD,GLOBEX,20170316.0,False,SPH7,250.0,,,FUT,0.0,SPX,SP
196590847,USD,GLOBEX,20170615.0,False,SPM7,250.0,,,FUT,0.0,SPX,SP
206149294,USD,GLOBEX,20170914.0,False,SPU7,250.0,,,FUT,0.0,SPX,SP
214694090,USD,GLOBEX,20201217.0,False,SPZ0,250.0,,,FUT,0.0,SPX,SP
225039497,USD,GLOBEX,20180315.0,False,SPH8,250.0,,,FUT,0.0,SPX,SP
236119926,USD,GLOBEX,20180614.0,False,SPM8,250.0,,,FUT,0.0,SPX,SP
247261808,USD,GLOBEX,20180920.0,False,SPU8,250.0,,,FUT,0.0,SPX,SP
226578796,EUR,DTB,20161216.0,False,FESB DEC 16,50.0,,,FUT,0.0,SX7E,FESB
237122806,EUR,DTB,20170317.0,False,FESB MAR 17,50.0,,,FUT,0.0,SX7E,FESB
248032425,EUR,DTB,20170616.0,False,FESB JUN 17,50.0,,,FUT,0.0,SX7E,FESB
226579016,EUR,DTB,20161216.0,False,FSTE DEC 16,50.0,,,FUT,0.0,SXEP,FSTE
237123110,EUR,DTB,20170317.0,False,FSTE MAR 17,50.0,,,FUT,0.0,SXEP,FSTE
248032582,EUR,DTB,20170616.0,False,FSTE JUN 17,50.0,,,FUT,0.0,SXEP,FSTE
226579030,EUR,DTB,20161216.0,False,FSTS DEC 16,50.0,,,FUT,0.0,SXPP,FSTS
237122824,EUR,DTB,20170317.0,False,FSTS MAR 17,50.0,,,FUT,0.0,SXPP,FSTS
248032520,EUR,DTB,20170616.0,False,FSTS JUN 17,50.0,,,FUT,0.0,SXPP,FSTS
215465451,USD,ECBOT,20161216.0,False,YM   DEC 16,5.0,,,FUT,0.0,YM,YM
225652157,USD,ECBOT,20170317.0,False,YM   MAR 17,5.0,,,FUT,0.0,YM,YM
236950030,USD,ECBOT,20170616.0,False,YM   JUN 17,5.0,,,FUT,0.0,YM,YM
247950511,USD,ECBOT,20170915.0,False,YM   SEP 17,5.0,,,FUT,0.0,YM,YM
118838451,USD,ECBOT,20161214.0,False,ZC   DEC 16,5000.0,,,FUT,0.0,ZC,ZC
140039774,USD,ECBOT,20170714.0,False,ZC   JUL 17,5000.0,,,FUT,0.0,ZC,ZC
140039778,USD,ECBOT,20171214.0,False,ZC   DEC 17,5000.0,,,FUT,0.0,ZC,ZC
176830377,USD,ECBOT,20170314.0,False,ZC   MAR 17,5000.0,,,FUT,0.0,ZC,ZC
176830380,USD,ECBOT,20170914.0,False,ZC   SEP 17,5000.0,,,FUT,0.0,ZC,ZC
176830386,USD,ECBOT,20170512.0,False,ZC   MAY 17,5000.0,,,FUT,0.0,ZC,ZC
176830391,USD,ECBOT,20180713.0,False,ZC   JUL 18,5000.0,,,FUT,0.0,ZC,ZC
176830392,USD,ECBOT,20181214.0,False,ZC   DEC 18,5000.0,,,FUT,0.0,ZC,ZC
215229132,USD,ECBOT,20180314.0,False,ZC   MAR 18,5000.0,,,FUT,0.0,ZC,ZC
215229138,USD,ECBOT,20180514.0,False,ZC   MAY 18,5000.0,,,FUT,0.0,ZC,ZC
215229143,USD,ECBOT,20190712.0,False,ZC   JUL 19,5000.0,,,FUT,0.0,ZC,ZC
215229144,USD,ECBOT,20180914.0,False,ZC   SEP 18,5000.0,,,FUT,0.0,ZC,ZC
215229149,USD,ECBOT,20191213.0,False,ZC   DEC 19,5000.0,,,FUT,0.0,ZC,ZC
116994780,USD,ECBOT,20161114.0,False,ZS   NOV 16,5000.0,,,FUT,0.0,ZS,ZS
138298470,USD,ECBOT,20170714.0,False,ZS   JUL 17,5000.0,,,FUT,0.0,ZS,ZS
138298487,USD,ECBOT,20171114.0,False,ZS   NOV 17,5000.0,,,FUT,0.0,ZS,ZS
173780204,USD,ECBOT,20170914.0,False,ZS   SEP 17,5000.0,,,FUT,0.0,ZS,ZS
173780210,USD,ECBOT,20181114.0,False,ZS   NOV 18,5000.0,,,FUT,0.0,ZS,ZS
173780215,USD,ECBOT,20170814.0,False,ZS   AUG 17,5000.0,,,FUT,0.0,ZS,ZS
173780216,USD,ECBOT,20170512.0,False,ZS   MAY 17,5000.0,,,FUT,0.0,ZS,ZS
173780221,USD,ECBOT,20170113.0,False,ZS   JAN 17,5000.0,,,FUT,0.0,ZS,ZS
173780227,USD,ECBOT,20180713.0,False,ZS   JUL 18,5000.0,,,FUT,0.0,ZS,ZS
173780230,USD,ECBOT,20170314.0,False,ZS   MAR 17,5000.0,,,FUT,0.0,ZS,ZS
212511056,USD,ECBOT,20180112.0,False,ZS   JAN 18,5000.0,,,FUT,0.0,ZS,ZS
212511061,USD,ECBOT,20180314.0,False,ZS   MAR 18,5000.0,,,FUT,0.0,ZS,ZS
212511066,USD,ECBOT,20180514.0,False,ZS   MAY 18,5000.0,,,FUT,0.0,ZS,ZS
212511071,USD,ECBOT,20190712.0,False,ZS   JUL 19,5000.0,,,FUT,0.0,ZS,ZS
212511075,USD,ECBOT,20180814.0,False,ZS   AUG 18,5000.0,,,FUT,0.0,ZS,ZS
212511078,USD,ECBOT,20180914.0,False,ZS   SEP 18,5000.0,,,FUT,0.0,ZS,ZS
212511081,USD,ECBOT,20191114.0,False,ZS   NOV 19,5000.0,,,FUT,0.0,ZS,ZS
118838417,USD,ECBOT,20161214.0,False,ZL   DEC 16,60000.0,,,FUT,0.0,ZL,ZL
140039681,USD,ECBOT,20171214.0,False,ZL   DEC 17,60000.0,,,FUT,0.0,ZL,ZL
140039684,USD,ECBOT,20170714.0,False,ZL   JUL 17,60000.0,,,FUT,0.0,ZL,ZL
140039694,USD,ECBOT,20171013.0,False,ZL   OCT 17,60000.0,,,FUT,0.0,ZL,ZL
176830309,USD,ECBOT,20170512.0,False,ZL   MAY 17,60000.0,,,FUT,0.0,ZL,ZL
176830314,USD,ECBOT,20170814.0,False,ZL   AUG 17,60000.0,,,FUT,0.0,ZL,ZL
176830319,USD,ECBOT,20170914.0,False,ZL   SEP 17,60000.0,,,FUT,0.0,ZL,ZL
176830321,USD,ECBOT,20181214.0,False,ZL   DEC 18,60000.0,,,FUT,0.0,ZL,ZL
176830324,USD,ECBOT,20170113.0,False,ZL   JAN 17,60000.0,,,FUT,0.0,ZL,ZL
176830331,USD,ECBOT,20180713.0,False,ZL   JUL 18,60000.0,,,FUT,0.0,ZL,ZL
176830334,USD,ECBOT,20170314.0,False,ZL   MAR 17,60000.0,,,FUT,0.0,ZL,ZL
176830337,USD,ECBOT,20181012.0,False,ZL   OCT 18,60000.0,,,FUT,0.0,ZL,ZL
215229153,USD,ECBOT,20180112.0,False,ZL   JAN 18,60000.0,,,FUT,0.0,ZL,ZL
215229156,USD,ECBOT,20180314.0,False,ZL   MAR 18,60000.0,,,FUT,0.0,ZL,ZL
215229163,USD,ECBOT,20180514.0,False,ZL   MAY 18,60000.0,,,FUT,0.0,ZL,ZL
215229166,USD,ECBOT,20190712.0,False,ZL   JUL 19,60000.0,,,FUT,0.0,ZL,ZL
215229168,USD,ECBOT,20180814.0,False,ZL   AUG 18,60000.0,,,FUT,0.0,ZL,ZL
215229173,USD,ECBOT,20180914.0,False,ZL   SEP 18,60000.0,,,FUT,0.0,ZL,ZL
215229178,USD,ECBOT,20191014.0,False,ZL   OCT 19,60000.0,,,FUT,0.0,ZL,ZL
215229183,USD,ECBOT,20191213.0,False,ZL   DEC 19,60000.0,,,FUT,0.0,ZL,ZL
118838372,USD,ECBOT,20161214.0,False,ZM   DEC 16,100.0,,,FUT,0.0,ZM,ZM
140039741,USD,ECBOT,20170714.0,False,ZM   JUL 17,100.0,,,FUT,0.0,ZM,ZM
140039761,USD,ECBOT,20171013.0,False,ZM   OCT 17,100.0,,,FUT,0.0,ZM,ZM
140039764,USD,ECBOT,20171214.0,False,ZM   DEC 17,100.0,,,FUT,0.0,ZM,ZM
176830400,USD,ECBOT,20170512.0,False,ZM   MAY 17,100.0,,,FUT,0.0,ZM,ZM
176830405,USD,ECBOT,20170113.0,False,ZM   JAN 17,100.0,,,FUT,0.0,ZM,ZM
176830410,USD,ECBOT,20170314.0,False,ZM   MAR 17,100.0,,,FUT,0.0,ZM,ZM
176830415,USD,ECBOT,20181214.0,False,ZM   DEC 18,100.0,,,FUT,0.0,ZM,ZM
176830417,USD,ECBOT,20170914.0,False,ZM   SEP 17,100.0,,,FUT,0.0,ZM,ZM
176830420,USD,ECBOT,20181012.0,False,ZM   OCT 18,100.0,,,FUT,0.0,ZM,ZM
176830427,USD,ECBOT,20180713.0,False,ZM   JUL 18,100.0,,,FUT,0.0,ZM,ZM
176830430,USD,ECBOT,20170814.0,False,ZM   AUG 17,100.0,,,FUT,0.0,ZM,ZM
215229081,USD,ECBOT,20180112.0,False,ZM   JAN 18,100.0,,,FUT,0.0,ZM,ZM
215229084,USD,ECBOT,20180314.0,False,ZM   MAR 18,100.0,,,FUT,0.0,ZM,ZM
215229088,USD,ECBOT,20180514.0,False,ZM   MAY 18,100.0,,,FUT,0.0,ZM,ZM
215229093,USD,ECBOT,20190712.0,False,ZM   JUL 19,100.0,,,FUT,0.0,ZM,ZM
215229098,USD,ECBOT,20180814.0,False,ZM   AUG 18,100.0,,,FUT,0.0,ZM,ZM
215229103,USD,ECBOT,20180914.0,False,ZM   SEP 18,100.0,,,FUT,0.0,ZM,ZM
215229105,USD,ECBOT,20191014.0,False,ZM   OCT 19,100.0,,,FUT,0.0,ZM,ZM
215229108,USD,ECBOT,20191213.0,False,ZM   DEC 19,100.0,,,FUT,0.0,ZM,ZM
179029814,USD,NYBOT,20161214.0,False,CCZ6,10.0,,,FUT,0.0,CC,CC
189284075,USD,NYBOT,20170316.0,False,CCH7,10.0,,,FUT,0.0,CC,CC
196110739,USD,NYBOT,20170515.0,False,CCK7,10.0,,,FUT,0.0,CC,CC
202059697,USD,NYBOT,20170714.0,False,CCN7,10.0,,,FUT,0.0,CC,CC
208561324,USD,NYBOT,20170914.0,False,CCU7,10.0,,,FUT,0.0,CC,CC
217935092,USD,NYBOT,20171213.0,False,CCZ7,10.0,,,FUT,0.0,CC,CC
228089658,USD,NYBOT,20180314.0,False,CCH8,10.0,,,FUT,0.0,CC,CC
235596833,USD,NYBOT,20180515.0,False,CCK8,10.0,,,FUT,0.0,CC,CC
242691569,USD,NYBOT,20180716.0,False,CCN8,10.0,,,FUT,0.0,CC,CC
250067305,USD,NYBOT,20180913.0,False,CCU8,10.0,,,FUT,0.0,CC,CC
45024954,GBP,LSE,,False,AAL,,LSE,,STK,0.0,AAL,AAL
199356415,GBP,LSE,,False,3IN,,LSE,,STK,0.0,3IN,3IN
73473559,GBP,LSE,,False,ACA,,LSE,,STK,0.0,ABG,ABG
908924,GBP,LSE,,False,ABF,,LSE,,STK,0.0,ABF,ABF
38772705,GBP,LSE,,False,ADM,,LSE,,STK,0.0,ADM,ADM
17808252,GBP,LSE,,False,ADN,,LSE,,STK,0.0,ADN,ADN
152925410,GBP,LSE,,False,AGK,,LSE,,STK,0.0,AGK,AGK
182023364,GBP,LSE,,False,AGR,,LSE,,STK,0.0,AGR,AGR
35150670,GBP,LSE,,False,AHT,,LSE,,STK,0.0,AHT,AHT
186567771,GBP,LSE,,False,ALD,,LSE,,STK,0.0,ALD,ALD
157169494,GBP,LSE,,False,ALM,,LSE,,STK,0.0,ALM,ALM
12599227,GBP,LSE,,False,AMFW,,LSE,,STK,0.0,AMEC,AMEC
17628566,GBP,LSE,,False,ANTO,,LSE,,STK,0.0,ANTO,ANTO
145200283,GBP,LSE,,False,AO.,,LSE,,STK,0.0,AO.,AO.
41957229,GBP,LSE,,False,ASHM,,LSE,,STK,0.0,ASHM,ASHM
26652723,GBP,LSE,,False,ASL,,LSE,,STK,0.0,ASL,ASL
12177256,GBP,LSE,,False,ATK,,LSE,,STK,0.0,ATK,ATK
39846471,GBP,LSE,,False,ATST,,LSE,,STK,0.0,ATST,ATST
187511156,GBP,LSE,,False,AUTO,,LSE,,STK,0.0,AUTO,AUTO
130990544,GBP,LSE,,False,AVV,,LSE,,STK,0.0,AVV,AVV
3752317,GBP,LSE,,False,AV.,,LSE,,STK,0.0,AV.,AV.
35156736,GBP,LSE,,False,BAB,,LSE,,STK,0.0,BAB,BAB
908964,GBP,LSE,,False,BA.,,LSE,,STK,0.0,BA.,BA.
909330,GBP,LSE,,False,AZN,,LSE,,STK,0.0,AZN,AZN
108068430,GBP,LSE,,False,BAG,,LSE,,STK,0.0,BAG,BAG
12599244,GBP,LSE,,False,BBY,,LSE,,STK,0.0,BBY,BBY
908940,GBP,LSE,,False,BARC,,LSE,,STK,0.0,BARC,BARC
908931,GBP,LSE,,False,BATS,,LSE,,STK,0.0,BATS,BATS
41560109,GBP,LSE,,False,BBA,,LSE,,STK,0.0,BBA,BBA
180019314,GBP,LSE,,False,BBOX,,LSE,,STK,0.0,BBOX,BBOX
12599238,GBP,LSE,,False,BDEV,,LSE,,STK,0.0,BDEV,BDEV
229115041,GBP,LSE,,False,BEZ,,LSE,,STK,0.0,BEZ,BEZ
103512794,GBP,LSE,,False,BGEO,,LSE,,STK,0.0,BGEO,BGEO
45080642,GBP,LSE,,False,BHMG,,LSE,,STK,0.0,BHMG,BHMG
12599241,GBP,LSE,,False,BKG,,LSE,,STK,0.0,BKG,BKG
957343,GBP,LSE,,False,BLND,,LSE,,STK,0.0,BLND,BLND
3063659,GBP,LSE,,False,BLT,,LSE,,STK,0.0,BLT,BLT
155723715,GBP,LSE,,False,BME,,LSE,,STK,0.0,BME,BME
26652740,GBP,LSE,,False,BNKR,,LSE,,STK,0.0,BNKR,BNKR
34777674,GBP,LSE,,False,BNZL,,LSE,,STK,0.0,BNZL,BNZL
45080653,GBP,LSE,,False,BOK,,LSE,,STK,0.0,BOK,BOK
56437692,GBP,LSE,,False,BOY,,LSE,,STK,0.0,BOY,BOY
228891,GBP,LSE,,False,BP.,,LSE,,STK,0.0,BP.,BP.
15977601,GBP,LSE,,False,BRBY,,LSE,,STK,0.0,BRBY,BRBY
35636014,GBP,LSE,,False,BRSN,,LSE,,STK,0.0,DVSG,DVSG
35150712,GBP,LSE,,False,BRW,,LSE,,STK,0.0,BRW,BRW
26652752,GBP,LSE,,False,BTEM,,LSE,,STK,0.0,BTEM,BTEM
12599250,GBP,LSE,,False,BTG,,LSE,,STK,0.0,BTG,BTG
39131977,GBP,LSE,,False,BVIC,,LSE,,STK,0.0,BVIC,BVIC
13672206,GBP,LSE,,False,BT.A,,LSE,,STK,0.0,BT,BT.A
43128997,GBP,LSE,,False,BWNG,,LSE,,STK,0.0,BWNG,BWNG
16520541,GBP,LSE,,False,BWY,,LSE,,STK,0.0,BWY,BWY
35150697,GBP,LSE,,False,BYG,,LSE,,STK,0.0,BYG,BYG
26652747,GBP,LSE,,False,BVS,,LSE,,STK,0.0,BVS,BVS
73793147,GBP,LSE,,False,CAPC,,LSE,,STK,0.0,CCPR,CAPC
151484767,GBP,LSE,,False,CARD,,LSE,,STK,0.0,CARD,CARD
12605023,GBP,LSE,,False,CBG,,LSE,,STK,0.0,CBG,CBG
183240974,GBP,LSE,,False,CCC,,LSE,,STK,0.0,CCC,CCC
126945329,GBP,LSE,,False,CCH,,LSE,,STK,0.0,CCH,CCH
10532000,GBP,LSE,,False,CCL,,LSE,,STK,0.0,CCL,CCL
99690164,GBP,LSE,,False,CEY,,LSE,,STK,0.0,CEY,CEY
58677170,GBP,LSE,,False,CINE,,LSE,,STK,0.0,CINE,CINE
35150752,GBP,LSE,,False,CKN,,LSE,,STK,0.0,CKN,CKN
12604313,GBP,LSE,,False,CLDN,,LSE,,STK,0.0,CLDN,CLDN
26652771,GBP,LSE,,False,CLLN,,LSE,,STK,0.0,CLLN,CLLN
38772730,GBP,LSE,,False,CLI,,LSE,,STK,0.0,CLI,CLI
31765913,GBP,LSE,,False,CNA,,LSE,,STK,0.0,CNA,CNA
101840678,GBP,LSE,,False,CNE,,LSE,,STK,0.0,CNE,CNE
35124598,GBP,LSE,,False,COB,,LSE,,STK,0.0,COB,COB
155949444,GBP,LSE,,False,CPG,,LSE,,STK,0.0,CPG,CPG
232550984,GBP,LSE,,False,CRDA,,LSE,,STK,0.0,CRDA,CRDA
46146979,GBP,LSE,,False,CPI,,LSE,,STK,0.0,CPI,CPI
122180384,GBP,LSE,,False,CRST,,LSE,,STK,0.0,CRST,CRST
26652780,GBP,LSE,,False,CTY,,LSE,,STK,0.0,CTY,CTY
124824309,GBP,LSE,,False,CWD,,LSE,,STK,0.0,CWD,CWD
3185818,GBP,LSE,,False,CWK,,LSE,,STK,0.0,CWK,CWK
97341412,GBP,LSE,,False,CRH,,LSE,,STK,0.0,CRH,CRH
123584215,GBP,LSE,,False,DCC,,LSE,,STK,0.0,DCC,DCC
15929393,GBP,LSE,,False,DCG,,LSE,,STK,0.0,DCG,DCG
73814267,GBP,LSE,,False,DC.,,LSE,,STK,0.0,CPWN,CPW
39830427,GBP,LSE,,False,DEB,,LSE,,STK,0.0,DEB,DEB
186358324,GBP,LSE,,False,DFS,,LSE,,STK,0.0,DFS,DFS
41957251,GBP,LSE,,False,DJAN,,LSE,,STK,0.0,DJAN,DJAN
3310674,GBP,LSE,,False,DGE,,LSE,,STK,0.0,DGE,DGE
198630444,GBP,LSE,,False,DLG,,LSE,,STK,0.0,DLG,DLG
26652807,GBP,LSE,,False,DLN,,LSE,,STK,0.0,DLN,DLN
41962545,GBP,LSE,,False,DNLM,,LSE,,STK,0.0,DNLM,DNLM
236581278,GBP,LSE,,False,DOM,,LSE,,STK,0.0,DOM,DOM
35151287,GBP,LSE,,False,DPLM,,LSE,,STK,0.0,DPLM,DPLM
44035682,GBP,LSE,,False,DRX,,LSE,,STK,0.0,DRX,DRX
37102459,GBP,LSE,,False,DPH,,LSE,,STK,0.0,DPH,DPH
172600514,GBP,LSE,,False,DTY,,LSE,,STK,0.0,DTY,DTY
12103838,GBP,LSE,,False,ECM,,LSE,,STK,0.0,ECM,ECM
26652819,GBP,LSE,,False,EDIN,,LSE,,STK,0.0,EDIN,EDIN
35151323,GBP,LSE,,False,ELM,,LSE,,STK,0.0,ELM,ELM
26652825,GBP,LSE,,False,ELTA,,LSE,,STK,0.0,ELTA,ELTA
116675928,GBP,LSE,,False,EMG,,LSE,,STK,0.0,EMG,EMG
26652832,GBP,LSE,,False,ERM,,LSE,,STK,0.0,ERM,ERM
34759114,GBP,LSE,,False,ESNT,,LSE,,STK,0.0,ESNT,ESNT
124969304,GBP,LSE,,False,ESUR,,LSE,,STK,0.0,ESUR,ESUR
134762069,GBP,LSE,,False,ETO,,LSE,,STK,0.0,ETO,ETO
97249656,GBP,LSE,,False,EVR,,LSE,,STK,0.0,EVR,EVR
41044864,GBP,LSE,,False,EXPN,,LSE,,STK,0.0,EXPN,EXPN
103665937,GBP,LSE,,False,EZJ,,LSE,,STK,0.0,EZJ,EZJ
61593827,GBP,LSE,,False,FCPT,,LSE,,STK,0.0,FCPT,FCPT
75306502,GBP,LSE,,False,FCSS,,LSE,,STK,0.0,FCSS,FCSS
35151695,GBP,LSE,,False,FDSA,,LSE,,STK,0.0,FDSA,FDSA
153452108,GBP,LSE,,False,FEV,,LSE,,STK,0.0,FEV,FEV
12171721,GBP,LSE,,False,FGP,,LSE,,STK,0.0,FGP,FGP
37102495,GBP,LSE,,False,FGT,,LSE,,STK,0.0,FGT,FGT
12103847,GBP,LSE,,False,FRCL,,LSE,,STK,0.0,FRCL,FRCL
51069466,GBP,LSE,,False,FRES,,LSE,,STK,0.0,FRES,FRES
35151370,GBP,LSE,,False,FSJ,,LSE,,STK,0.0,FSJ,FSJ
132665922,GBP,LSE,,False,GCP,,LSE,,STK,0.0,GCP,GCP
68491390,GBP,LSE,,False,GFRD,,LSE,,STK,0.0,GFRD,GFRD
30058972,GBP,LSE,,False,GFS,,LSE,,STK,0.0,GFS,GFS
136348477,GBP,LSE,,False,GFTU,,LSE,,STK,0.0,GFTU,GFTU
957657,GBP,LSE,,False,GKN,,LSE,,STK,0.0,GKN,GKN
88286963,GBP,LSE,,False,GLEN,,LSE,,STK,0.0,GL,GL
100813788,GBP,LSE,,False,GNC,,LSE,,STK,0.0,GNC,GNC
35881267,GBP,LSE,,False,GNK,,LSE,,STK,0.0,GNK,GNK
37099328,GBP,LSE,,False,GNS,,LSE,,STK,0.0,GNS,GNS
26652876,GBP,LSE,,False,GOG,,LSE,,STK,0.0,GOG,GOG
13430940,GBP,LSE,,False,GPOR,,LSE,,STK,0.0,GPOR,GPOR
60215826,GBP,LSE,,False,GRG,,LSE,,STK,0.0,GRG,GRG
26652882,GBP,LSE,,False,GRI,,LSE,,STK,0.0,GRI,GRI
909054,GBP,LSE,,False,GSK,,LSE,,STK,0.0,GSK,GSK
125005888,GBP,LSE,,False,GVC,,LSE,,STK,0.0,GVC,GVC
37036678,GBP,LSE,,False,HFD,,LSE,,STK,0.0,HFD,HFD
55584541,GBP,LSE,,False,HGG,,LSE,,STK,0.0,HGI,HGG
957694,GBP,LSE,,False,HAS,,LSE,,STK,0.0,HAS,HAS
53157046,GBP,LSE,,False,HICL,,LSE,,STK,0.0,HICL,HICL
38772742,GBP,LSE,,False,HIK,,LSE,,STK,0.0,HIK,HIK
15824399,GBP,LSE,,False,HLMA,,LSE,,STK,0.0,HLMA,HLMA
37102528,GBP,LSE,,False,HILS,,LSE,,STK,0.0,HILS,HILS
12171710,GBP,LSE,,False,HMSO,,LSE,,STK,0.0,HMSO,HMSO
41957241,GBP,LSE,,False,HOC,,LSE,,STK,0.0,HOC,HOC
46147092,GBP,LSE,,False,HL.,,LSE,,STK,0.0,HL,HL.
44080450,GBP,LSE,,False,HSTN,,LSE,,STK,0.0,HSTN,HSTN
200213814,GBP,LSE,,False,HSV,,LSE,,STK,0.0,HSV,HSV
909083,GBP,LSE,,False,HSBA,,LSE,,STK,0.0,HSBA,HSBA
188614725,GBP,LSE,,False,HSX,,LSE,,STK,0.0,HSX,HSX
35151455,GBP,LSE,,False,HTG,,LSE,,STK,0.0,HTG,HTG
12605132,GBP,LSE,,False,HWDN,,LSE,,STK,0.0,HWDN,HWDN
15824401,GBP,LSE,,False,IAP,,LSE,,STK,0.0,IAP,IAP
242485383,GBP,LSE,,False,ICP,,LSE,,STK,0.0,ICP,ICP
82965895,GBP,LSE,,False,IAG,,LSE,,STK,0.0,IAG,IAG
232550978,GBP,LSE,,False,IHG,,LSE,,STK,0.0,IHG,IHG
38772748,GBP,LSE,,False,IGG,,LSE,,STK,0.0,IGG,IGG
45145440,GBP,LSE,,False,III,,LSE,,STK,0.0,III,III
144206341,GBP,LSE,,False,IMI,,LSE,,STK,0.0,IMI,IMI
75259168,GBP,LSE,,False,INCH,,LSE,,STK,0.0,INCH,INCH
176781808,GBP,LSE,,False,INDV,,LSE,,STK,0.0,INDV,INDV
152238054,GBP,LSE,,False,INF,,LSE,,STK,0.0,INF,INF
53766300,GBP,LSE,,False,INPP,,LSE,,STK,0.0,INPP,INPP
12605008,GBP,LSE,,False,INTU,,LSE,,STK,0.0,LII,CSCG
40714473,GBP,LSE,,False,INVP,,LSE,,STK,0.0,INVP,INVP
55584363,GBP,LSE,,False,IPO,,LSE,,STK,0.0,IPO,IPO
45136322,GBP,LSE,,False,IPF,,LSE,,STK,0.0,IPF,IPF
35156776,GBP,LSE,,False,ISAT,,LSE,,STK,0.0,ISAT,ISAT
16644346,GBP,LSE,,False,ITRK,,LSE,,STK,0.0,ITRK,ITRK
909056,GBP,LSE,,False,ITV,,LSE,,STK,0.0,ITV,ITV
150696496,GBP,LSE,,False,JAM,,LSE,,STK,0.0,JAM,JAM
1509934,GBP,LSE,,False,JDW,,LSE,,STK,0.0,JDW,JDW
154393859,GBP,LSE,,False,JD.,,LSE,,STK,0.0,JD.,JD.
150754056,GBP,LSE,,False,JE.,,LSE,,STK,0.0,JE.,JE.
35151520,GBP,LSE,,False,JII,,LSE,,STK,0.0,JII,JII
183815649,GBP,LSE,,False,JLG,,LSE,,STK,0.0,JLG,JLG
81484884,GBP,LSE,,False,JLIF,,LSE,,STK,0.0,JLIF,JLIF
13885261,GBP,LSE,,False,JLT,,LSE,,STK,0.0,JLT,JLT
218457806,GBP,LSE,,False,JMAT,,LSE,,STK,0.0,JMAT,JMAT
35151513,GBP,LSE,,False,JMG,,LSE,,STK,0.0,JMG,JMG
76282550,GBP,LSE,,False,JUP,,LSE,,STK,0.0,JUP,JUP
37138033,GBP,LSE,,False,KAZ,,LSE,,STK,0.0,KAZ,KAZ
909096,GBP,LSE,,False,KGF,,LSE,,STK,0.0,KGF,KGF
35156787,GBP,LSE,,False,KIE,,LSE,,STK,0.0,KIE,KIE
35151535,GBP,LSE,,False,KLR,,LSE,,STK,0.0,KLR,KLR
145064096,GBP,LSE,,False,KWE,,LSE,,STK,0.0,KWE,KWE
38738931,GBP,LSE,,False,LAD,,LSE,,STK,0.0,HG.,LAD
909107,GBP,LSE,,False,LAND,,LSE,,STK,0.0,LAND,LAND
909110,GBP,LSE,,False,LGEN,,LSE,,STK,0.0,LGEN,LGEN
909301,GBP,LSE,,False,LLOY,,LSE,,STK,0.0,LLOY,LLOY
79699121,GBP,LSE,,False,LMP,,LSE,,STK,0.0,LSP,LSP
44618280,GBP,LSE,,False,LRD,,LSE,,STK,0.0,LARD,LRD
45080725,GBP,LSE,,False,LRE,,LSE,,STK,0.0,LRE,LRE
39234929,GBP,LSE,,False,LSE,,LSE,,STK,0.0,LSE,LSE
41257340,GBP,LSE,,False,MAB,,LSE,,STK,0.0,MAB,MAB
42427953,GBP,LSE,,False,MARS,,LSE,,STK,0.0,MARS,MARS
173940914,GBP,LSE,,False,MCRO,,LSE,,STK,0.0,MCRO,MCRO
138073296,GBP,LSE,,False,MERL,,LSE,,STK,0.0,MERL,MERL
12605156,GBP,LSE,,False,MGAM,,LSE,,STK,0.0,MGCR,MGCR
12604968,GBP,LSE,,False,MGGT,,LSE,,STK,0.0,MGGT,MGGT
26652983,GBP,LSE,,False,MLC,,LSE,,STK,0.0,MLC,MLC
44984985,GBP,LSE,,False,MNDI,,LSE,,STK,0.0,MNDI,MNDI
26652992,GBP,LSE,,False,MNKS,,LSE,,STK,0.0,MNKS,MNKS
909136,GBP,LSE,,False,MKS,,LSE,,STK,0.0,MKS,MKS
46147099,GBP,LSE,,False,MONY,,LSE,,STK,0.0,MONY,MONY
26652859,GBP,LSE,,False,MRC,,LSE,,STK,0.0,MRC,MRC
12177243,GBP,LSE,,False,MRW,,LSE,,STK,0.0,MRW,MRW
26652954,GBP,LSE,,False,MSLH,,LSE,,STK,0.0,MSLH,MSLH
26652989,GBP,LSE,,False,MTO,,LSE,,STK,0.0,MTO,MTO
26653007,GBP,LSE,,False,MYI,,LSE,,STK,0.0,MYI,MYI
87354800,GBP,LSE,,False,NBLS,,LSE,,STK,0.0,NBLS,NBLS
69361142,GBP,LSE,,False,NCC,,LSE,,STK,0.0,NCC,NCC
12610218,GBP,LSE,,False,NEX,,LSE,,STK,0.0,NEX,NEX
35415207,GBP,LSE,,False,NG.,,LSE,,STK,0.0,NGT,NG.
105433342,GBP,LSE,,False,NMC,,LSE,,STK,0.0,NMC,NMC
957975,GBP,LSE,,False,NXT,,LSE,,STK,0.0,NXT,NXT
77478945,GBP,LSE,,False,OCDO,,LSE,,STK,0.0,OCDO,OCDO
105164310,GBP,LSE,,False,OML,,LSE,,STK,0.0,OML,OML
154425436,GBP,LSE,,False,OSB,,LSE,,STK,0.0,OSB,OSB
153455038,GBP,LSE,,False,P2P,,LSE,,STK,0.0,P2P,P2P
48801659,GBP,LSE,,False,PAG,,LSE,,STK,0.0,PAG,PAG
35151632,GBP,LSE,,False,PAY,,LSE,,STK,0.0,PAY,PAY
35151647,GBP,LSE,,False,PCT,,LSE,,STK,0.0,PCT,PCT
69211417,GBP,LSE,,False,PDL,,LSE,,STK,0.0,PDL,PDL
146065480,GBP,LSE,,False,PETS,,LSE,,STK,0.0,PETS,PETS
38265906,GBP,LSE,,False,PFC,,LSE,,STK,0.0,PFC,PFC
45145433,GBP,LSE,,False,PFG,,LSE,,STK,0.0,PFG,PFG
73417118,GBP,LSE,,False,PHNX,,LSE,,STK,0.0,PHNX,PHNX
29731793,GBP,LSE,,False,PLI,,LSE,,STK,0.0,PLI,PLI
148510133,GBP,LSE,,False,PLP,,LSE,,STK,0.0,PLP,PLP
35151642,GBP,LSE,,False,PNL,,LSE,,STK,0.0,PNL,PNL
40297657,GBP,LSE,,False,PNN,,LSE,,STK,0.0,PNN,PNN
96922493,GBP,LSE,,False,POLY,,LSE,,STK,0.0,POLY,POLY
909164,GBP,LSE,,False,PRU,,LSE,,STK,0.0,PRU,PRU
12605003,GBP,LSE,,False,PSN,,LSE,,STK,0.0,PSN,PSN
909170,GBP,LSE,,False,PSON,,LSE,,STK,0.0,PSON,PSON
41053366,GBP,LSE,,False,PZC,,LSE,,STK,0.0,PZC,PZC
37920799,GBP,LSE,,False,QQ.,,LSE,,STK,0.0,QQ.,QQ.
110103472,GBP,LSE,,False,PTEC,,LSE,,STK,0.0,PTEC,PTEC
29712334,GBP,LSE,,False,RAT,,LSE,,STK,0.0,RAT,RAT
108376062,GBP,LSE,,False,RBS,,LSE,,STK,0.0,RBS,RBS
26653068,GBP,LSE,,False,RCP,,LSE,,STK,0.0,RCP,RCP
46713230,GBP,LSE,,False,RB.,,LSE,,STK,0.0,RB.,RB.
115342598,GBP,LSE,,False,RDI,,LSE,,STK,0.0,RDI,RDI
35154830,GBP,LSE,,False,RDSA,,LSE,,STK,0.0,SHELA,RDSA
35154827,GBP,LSE,,False,RDSB,,LSE,,STK,0.0,SHELB,RDSB
26653062,GBP,LSE,,False,RDW,,LSE,,STK,0.0,RDW,RDW
48005591,GBP,LSE,,False,REL,,LSE,,STK,0.0,REL,REL
54672554,GBP,LSE,,False,RGU,,LSE,,STK,0.0,RGU,RGU
2852762,GBP,LSE,,False,RIO,,LSE,,STK,0.0,RIO,RIO
136241601,GBP,LSE,,False,RMG,,LSE,,STK,0.0,RMG,RMG
48764385,GBP,LSE,,False,RMV,,LSE,,STK,0.0,RMV,RMV
43543987,GBP,LSE,,False,RNK,,LSE,,STK,0.0,RNK,RNK
194372137,GBP,LSE,,False,ROR,,LSE,,STK,0.0,ROR,ROR
35151697,GBP,LSE,,False,RPC,,LSE,,STK,0.0,RPC,RPC
26653059,GBP,LSE,,False,RRS,,LSE,,STK,0.0,RRS,RRS
88383131,GBP,LSE,,False,RR.,,LSE,,STK,0.0,RR.,RR.
150630405,GBP,LSE,,False,RSA,,LSE,,STK,0.0,RSA,RSA
137405260,GBP,LSE,,False,RSE,,LSE,,STK,0.0,RSE,RSE
26653065,GBP,LSE,,False,RSW,,LSE,,STK,0.0,RSW,RSW
38190767,GBP,LSE,,False,RTN,,LSE,,STK,0.0,RTN,RTN
909192,GBP,LSE,,False,RTO,,LSE,,STK,0.0,RTO,RTO
70942399,GBP,LSE,,False,SAFE,,LSE,,STK,0.0,SAFE,SAFE
152825006,GBP,LSE,,False,SAGA,,LSE,,STK,0.0,SAGA,SAGA
29911784,GBP,LSE,,False,SBRY,,LSE,,STK,0.0,SBRY,SBRY
26653085,GBP,LSE,,False,SCIN,,LSE,,STK,0.0,SCIN,SCIN
909246,GBP,LSE,,False,SDR,,LSE,,STK,0.0,SDR,SDR
95092438,GBP,LSE,,False,SGC,,LSE,,STK,0.0,SGC,SGC
129028068,GBP,LSE,,False,SGE,,LSE,,STK,0.0,SGE,SGE
73814551,GBP,LSE,,False,SGP,,LSE,,STK,0.0,SGP,SGP
64769359,GBP,LSE,,False,SGRO,,LSE,,STK,0.0,SGRO,SGRO
189328574,GBP,LSE,,False,SHAW,,LSE,,STK,0.0,SHAW,SHAW
26653104,GBP,LSE,,False,SHB,,LSE,,STK,0.0,SHB,SHB
26653109,GBP,LSE,,False,SHI,,LSE,,STK,0.0,SHI,SHI
51538961,GBP,LSE,,False,SHP,,LSE,,STK,0.0,SHP,SHP
12177246,GBP,LSE,,False,STJ,,LSE,,STK,0.0,STJ,STJ
908986,GBP,LSE,,False,SKY,,LSE,,STK,0.0,BSY,BSY
26653122,GBP,LSE,,False,SMDS,,LSE,,STK,0.0,SMDS,SMDS
44668420,GBP,LSE,,False,SMIN,,LSE,,STK,0.0,SMIN,SMIN
29718628,GBP,LSE,,False,SMP,,LSE,,STK,0.0,SMP,SMP
158725708,GBP,LSE,,False,SMT,,LSE,,STK,0.0,SMT,SMT
49280138,GBP,LSE,,False,SMWH,,LSE,,STK,0.0,SMWH,SMWH
35151725,GBP,LSE,,False,SNR,,LSE,,STK,0.0,SNR,SNR
909254,GBP,LSE,,False,SN.,,LSE,,STK,0.0,SN.,SN.
44650318,GBP,LSE,,False,SPD,,LSE,,STK,0.0,SPD,SPD
160954868,GBP,LSE,,False,SPI,,LSE,,STK,0.0,SPI,SPI
196961203,GBP,LSE,,False,SPX,,LSE,,STK,0.0,SPX,SPX
12605063,GBP,LSE,,False,SRP,,LSE,,STK,0.0,SRP,SRP
2570998,GBP,LSE,,False,SSE,,LSE,,STK,0.0,SSE,SSE
160434314,GBP,LSE,,False,SSPG,,LSE,,STK,0.0,SSPG,SSPG
909271,GBP,LSE,,False,STAN,,LSE,,STK,0.0,STAN,STAN
26653080,GBP,LSE,,False,SVI,,LSE,,STK,0.0,SVI,SVI
39143089,GBP,LSE,,False,SVS,,LSE,,STK,0.0,SVS,SVS
41172884,GBP,LSE,,False,SVT,,LSE,,STK,0.0,SVT,SVT
15945651,GBP,LSE,,False,SXS,,LSE,,STK,0.0,SXS,SXS
26653216,GBP,LSE,,False,SYNT,,LSE,,STK,0.0,YULC,YULC
73340155,GBP,LSE,,False,TALK,,LSE,,STK,0.0,TALK,TALK
909277,GBP,LSE,,False,TATE,,LSE,,STK,0.0,TATE,TATE
44896642,GBP,LSE,,False,TCG,,LSE,,STK,0.0,TCG,TCG
35151767,GBP,LSE,,False,TED,,LSE,,STK,0.0,TED,TED
26653157,GBP,LSE,,False,TEM,,LSE,,STK,0.0,TEM,TEM
35151768,GBP,LSE,,False,TEP,,LSE,,STK,0.0,TEP,TEP
42001290,GBP,LSE,,False,TLPR,,LSE,,STK,0.0,TLPR,TLPR
26653172,GBP,LSE,,False,TLW,,LSE,,STK,0.0,TLW,TLW
26653152,GBP,LSE,,False,TMPL,,LSE,,STK,0.0,TMPL,TMPL
12605058,GBP,LSE,,False,TPK,,LSE,,STK,0.0,TPK,TPK
132218131,GBP,LSE,,False,TRIG,,LSE,,STK,0.0,TRIG,TRIG
26653169,GBP,LSE,,False,TRY,,LSE,,STK,0.0,TRY,TRY
909281,GBP,LSE,,False,TSCO,,LSE,,STK,0.0,TSCO,TSCO
177290679,GBP,LSE,,False,TUI,,LSE,,STK,0.0,TUI,TUI
238231416,GBP,LSE,,False,UBM,,LSE,,STK,0.0,UBM,UBM
12605081,GBP,LSE,,False,TW.,,LSE,,STK,0.0,TWOD,TW.
35165916,GBP,LSE,,False,UDG,,LSE,,STK,0.0,UDG,UDG
41957260,GBP,LSE,,False,UKCM,,LSE,,STK,0.0,UKCM,UKCM
125137275,GBP,LSE,,False,UKW,,LSE,,STK,0.0,UKW,UKW
26653179,GBP,LSE,,False,ULE,,LSE,,STK,0.0,ULE,ULE
39234893,GBP,LSE,,False,ULVR,,LSE,,STK,0.0,ULVR,ULVR
38772769,GBP,LSE,,False,UTG,,LSE,,STK,0.0,UTG,UTG
52950461,GBP,LSE,,False,UU.,,LSE,,STK,0.0,UU.,UU.
26653191,GBP,LSE,,False,VCT,,LSE,,STK,0.0,VCT,VCT
44080562,GBP,LSE,,False,VEC,,LSE,,STK,0.0,VEC,VEC
29731661,GBP,LSE,,False,VED,,LSE,,STK,0.0,VED,VED
140148322,GBP,LSE,,False,VOD,,LSE,,STK,0.0,VOD,VOD
118857122,GBP,LSE,,False,VSVS,,LSE,,STK,0.0,VSVS,VSVS
21915985,GBP,LSE,,False,WEIR,,LSE,,STK,0.0,WEIR,WEIR
90523789,GBP,LSE,,False,WG.,,LSE,,STK,0.0,WG.,WG.
185320420,GBP,LSE,,False,WIZZ,,LSE,,STK,0.0,WIZZ,WIZZ
92297924,GBP,LSE,,False,WKP,,LSE,,STK,0.0,WKP,WKP
137700231,GBP,LSE,,False,WOS,,LSE,,STK,0.0,WOS,WOS
15213885,GBP,LSE,,False,WMH,,LSE,,STK,0.0,WMH,WMH
119773886,GBP,LSE,,False,WPP,,LSE,,STK,0.0,WPP,WPP
26653209,GBP,LSE,,False,WTAN,,LSE,,STK,0.0,WTAN,WTAN
42402491,GBP,LSE,,False,WTB,,LSE,,STK,0.0,WTB,WTB
35151360,GBP,LSE,,False,WWH,,LSE,,STK,0.0,WWH,WWH
156628630,GBP,LSE,,False,ZPLA,,LSE,,STK,0.0,ZPLA,ZPLA
34390116,EUR,BM,,False,A3M,,BM,,STK,0.0,ATN,ATN
917376,EUR,BM,,False,ABE,,BM,,STK,0.0,ABE,ABE
30314131,EUR,BM,,False,ACS,,BM,,STK,0.0,ACS,ACS
2950160,EUR,BM,,False,ADV,,BM,,STK,0.0,UPL,UPL
30314161,EUR,BM,,False,ACX,,BM,,STK,0.0,ACX,ACX
183530573,EUR,BM,,False,AENA,,BM,,STK,0.0,AENA,AENA
917391,EUR,BM,,False,ALB,,BM,,STK,0.0,ALB,ALB
48871142,EUR,BM,,False,ALM,,BM,,STK,0.0,ALM,ALM
48871197,EUR,BM,,False,ALNT,,BM,,STK,0.0,DIN,DIN
917393,EUR,BM,,False,AMP,,BM,,STK,0.0,AMP,AMP
74792133,EUR,BM,,False,AMS,,BM,,STK,0.0,AMS,AMS
917436,EUR,BM,,False,ANA,,BM,,STK,0.0,ANA,ANA
150965891,EUR,BM,,False,APPS,,BM,,STK,0.0,APPS,APPS
160128264,EUR,BM,,False,AXIA,,BM,,STK,0.0,AXIA,AXIA
2949862,EUR,BM,,False,AZK,,BM,,STK,0.0,AZK,AZK
30314149,EUR,BM,,False,BBVA,,BM,,STK,0.0,BBVA,BBVA
48871148,EUR,BM,,False,BDL,,BM,,STK,0.0,BDL,BDL
126028317,EUR,BM,,False,BKIA,,BM,,STK,0.0,BKIA,BKIA
45201369,EUR,BM,,False,BKT,,BM,,STK,0.0,BKT,BKT
41656844,EUR,BM,,False,BME,,BM,,STK,0.0,BME,BME
48832907,EUR,BM,,False,CABK,,BM,,STK,0.0,CABK,CABK
2949885,EUR,BM,,False,CAF,,BM,,STK,0.0,CAF,CAF
48871165,EUR,BM,,False,CDR,,BM,,STK,0.0,CDR,CDR
48871177,EUR,BM,,False,CIE,,BM,,STK,0.0,CIE,CIE
193517754,EUR,BM,,False,CLNX,,BM,,STK,0.0,CLNX,CLNX
241892013,EUR,BM,,False,COL,,BM,,STK,0.0,COL,COL
2949921,EUR,BM,,False,CPL,,BM,,STK,0.0,CPL,CPL
89401222,EUR,BM,,False,DIA,,BM,,STK,0.0,DIAS,DIAS
2589591,EUR,BM,,False,EBRO,,BM,,STK,0.0,EBRO,EBRO
69354442,EUR,BM,,False,ECR,,BM,,STK,0.0,ECR,ECR
148076610,EUR,BM,,False,EDR,,BM,,STK,0.0,EDR,EDR
198736550,EUR,BM,,False,EKT,,BM,,STK,0.0,EKT1,EKT1
47034787,EUR,BM,,False,MTS,,AEB,,STK,0.0,MT,MT
30314174,EUR,BM,,False,ELE,,BM,,STK,0.0,ELE,ELE
44008820,EUR,BM,,False,ENC,,BM,,STK,0.0,ENC,ENC
15824414,EUR,BM,,False,ENG,,BM,,STK,0.0,ENG,ENG
140051975,EUR,BM,,False,EZE,,BM,,STK,0.0,EZE,EZE
42765325,EUR,BM,,False,FAE,,BM,,STK,0.0,FAE,FAE
917454,EUR,BM,,False,FCC,,BM,,STK,0.0,FCC,FCC
48871204,EUR,BM,,False,FDR,,BM,,STK,0.0,FDR,FDR
32412869,EUR,BM,,False,FER,,BM,,STK,0.0,FER,FER
11988279,EUR,BM,,False,GAM,,BM,,STK,0.0,GAM,GAM
917433,EUR,BM,,False,GAS,,BM,,STK,0.0,GAS,GAS
39982029,EUR,BM,,False,GCO,,BM,,STK,0.0,GCO,GCO
217481604,EUR,BM,,False,GRF,,BM,,STK,0.0,GRF,GRF
146223340,EUR,BM,,False,HIS,,BM,,STK,0.0,HIS1,HIS1
82965896,EUR,BM,,False,IAG,,BM,,STK,0.0,IAG,IAG
46586284,EUR,BM,,False,IBE,,BM,,STK,0.0,IBE,IBE
4810659,EUR,BM,,False,IDR,,BM,,STK,0.0,IDR,IDR
162084958,EUR,BM,,False,ITX,,BM,,STK,0.0,ITX,ITX
217481007,EUR,BM,,False,LBK,,BM,,STK,0.0,LBK,LBK
48871239,EUR,BM,,False,LGT,,BM,,STK,0.0,LGT,LGT
160531120,EUR,BM,,False,LOG,,BM,,STK,0.0,LOG,LOG
145703605,EUR,BM,,False,LRE,,BM,,STK,0.0,LRE,LRE
41267871,EUR,BM,,False,MAP,,BM,,STK,0.0,MAP,MAP
2950051,EUR,BM,,False,MCM,,BM,,STK,0.0,MCM,MCM
48880550,EUR,BM,,False,MDF,,BM,,STK,0.0,MDF,MDF
2487794,EUR,BM,,False,MEL,,BM,,STK,0.0,SOL,SOL
159134192,EUR,BM,,False,MRL,,BM,,STK,0.0,MRL,MRL
30314137,EUR,BM,,False,NHH,,BM,,STK,0.0,NHH,NHH
192055637,EUR,BM,,False,NTH,,BM,,STK,0.0,NTH1,NTH1
48880568,EUR,BM,,False,OHL,,BM,,STK,0.0,OHL,OHL
48880610,EUR,BM,,False,OLE,,BM,,STK,0.0,SOS,SOS
43979529,EUR,BM,,False,PAC,,BM,,STK,0.0,PAC,PAC
211003297,EUR,BM,,False,PHM,,BM,,STK,0.0,PHM,PHM
129197981,EUR,BM,,False,POP,,BM,,STK,0.0,POP,POP
110206166,EUR,BM,,False,PSG,,BM,,STK,0.0,PSG,PSG
233079754,EUR,BM,,False,QBT,,BM,,STK,0.0,QBT,QBT
239949851,EUR,BM,,False,REE,,BM,,STK,0.0,REE,REE
30314140,EUR,BM,,False,REP,,BM,,STK,0.0,REP,REP
48880606,EUR,BM,,False,RLIA,,BM,,STK,0.0,RLIA,RLIA
44150571,EUR,BM,,False,SAB,,BM,,STK,0.0,SAB,SAB
30314144,EUR,BM,,False,SAN,,BM,,STK,0.0,SANT,SANT
183908178,EUR,BM,,False,SAY,,BM,,STK,0.0,SAY,SAY
917508,EUR,BM,,False,SCYR,,BM,,STK,0.0,SYV,SYV
30314159,EUR,BM,,False,TEF,,BM,,STK,0.0,TEF,TEF
30776012,EUR,BM,,False,TL5,,BM,,STK,0.0,TL5,TL5
193517749,EUR,BM,,False,TLGO,,BM,,STK,0.0,TLGO,TLGO
48880615,EUR,BM,,False,TRE,,BM,,STK,0.0,TRE,TRE
48880616,EUR,BM,,False,TRG,,BM,,STK,0.0,TRG,TRG
2950137,EUR,BM,,False,TUB,,BM,,STK,0.0,TUB,TUB
2950185,EUR,BM,,False,VID,,BM,,STK,0.0,VID,VID
917515,EUR,BM,,False,VIS,,BM,,STK,0.0,VIS,VIS
48880627,EUR,BM,,False,VOC,,BM,,STK,0.0,VOC,VOC
2950199,EUR,BM,,False,ZOT,,BM,,STK,0.0,ZOT,ZOT
